<?xml version="1.0" encoding="utf-8"?>
<!-- Generator: Adobe Illustrator 19.1.0, SVG Export Plug-In . SVG Version: 6.00 Build 0)  -->
<svg version="1.1" id="Camada_1" xmlns="http://www.w3.org/2000/svg" xmlns:xlink="http://www.w3.org/1999/xlink" x="0px" y="0px"
	 viewBox="0 0 206 213" style="enable-background:new 0 0 206 213;" xml:space="preserve">
<style type="text/css">
	.st0{clip-path:url(#SVGID_2_);fill:#FFFFFF;}
</style>
<g>
	<g>
		<defs>
			<rect id="SVGID_1_" x="10" y="13.1" width="187.9" height="187.5"/>
		</defs>
		<clipPath id="SVGID_2_">
			<use xlink:href="#SVGID_1_"  style="overflow:visible;"/>
		</clipPath>
		<path class="st0" d="M196.7,16.6c-0.3-1.1-1.1-1.9-2.2-2.2c-3.3-0.8-7-1.3-10.9-1.3c-13.7,0-31.5,5.2-50.1,14.7
			c-16.8,8.6-32.6,19.7-43.5,30.6c-0.7,0.7-1,1.8-0.8,2.8l10.5,45.9l-15.6,15.6l-2.8-2.8c-1.9-1.9-4.5-3-7.2-3s-5.3,1.1-7.2,3
			l-52.1,52.1c-3.1,3.1-4.8,7.3-4.8,11.7c0,4.4,1.7,8.5,4.8,11.7c3.1,3.1,7.2,4.8,11.7,4.8c4.4,0,8.5-1.7,11.6-4.8l52.1-52.1
			c1.9-1.9,3-4.5,3-7.2c0-2.7-1.1-5.3-3-7.2l-1.9-1.9l15.6-15.6l45.9,10.5c0.2,0.1,0.4,0.1,0.7,0.1c0.8,0,1.6-0.3,2.1-0.9
			C176.2,97.6,204.3,46.4,196.7,16.6L196.7,16.6z M19.1,191.1c-2-2-3.1-4.6-3.1-7.4c0-2.8,1.1-5.4,3.1-7.4l41.5-41.5l14.8,14.8
			l-41.5,41.5c-2,2-4.6,3.1-7.4,3.1C23.7,194.2,21,193.1,19.1,191.1L19.1,191.1z M86,139.1l-6.4,6.4l-14.8-14.8l6.4-6.4
			c0.8-0.8,1.8-1.2,2.9-1.2c1.1,0,2.1,0.4,2.9,1.2l9,9C87.6,134.8,87.6,137.4,86,139.1L86,139.1z M149.6,115.7l-40.6-9.3l13.3-13.3
			c1.2-1.2,1.2-3.1,0-4.2c-1.2-1.2-3.1-1.2-4.2,0l-13.3,13.3l-9.3-40.6c21.3-20.7,61.3-42.4,88.1-42.4c1.4,0,2.7,0.1,4,0.2
			l-61.1,61.1c-1.2,1.2-1.2,3.1,0,4.2c0.6,0.6,1.4,0.9,2.1,0.9c0.8,0,1.5-0.3,2.1-0.9l61.1-61.1C194.4,51.1,170,94.6,149.6,115.7
			L149.6,115.7z M149.6,115.7"/>
	</g>
</g>
</svg>
