<?xml version="1.0" standalone="no"?>
<!DOCTYPE svg PUBLIC "-//W3C//DTD SVG 1.1//EN" "http://www.w3.org/Graphics/SVG/1.1/DTD/svg11.dtd" >
<svg>
<metadata>
Created by FontForge 20100429 at Fri Sep 25 01:44:12 2015
 By fontface
Digitized data copyright The Monotype Corporation 1991-1995. All rights reserved. Gill Sans is a trademark of The Monotype Corporation which may be registered in certain jurisdictions.
</metadata>
<defs>
<font id="GillSansMT" horiz-adv-x="1024" >
  <font-face 
    font-family="Gill Sans MT"
    font-weight="400"
    font-stretch="normal"
    units-per-em="2048"
    panose-1="2 11 5 2 2 1 4 2 2 3"
    ascent="1638"
    descent="-410"
    x-height="920"
    cap-height="1397"
    bbox="-332 -578 2132 1880"
    underline-thickness="102"
    underline-position="-103"
    unicode-range="U+0020-FB02"
  />
<missing-glyph horiz-adv-x="2048" 
d="M256 0v1536h1536v-1536h-1536zM384 128h1280v1280h-1280v-1280z" />
    <glyph glyph-name=".notdef" horiz-adv-x="2048" 
d="M256 0v1536h1536v-1536h-1536zM384 128h1280v1280h-1280v-1280z" />
    <glyph glyph-name=".null" horiz-adv-x="0" 
 />
    <glyph glyph-name="nonmarkingreturn" horiz-adv-x="569" 
 />
    <glyph glyph-name="space" unicode=" " horiz-adv-x="569" 
 />
    <glyph glyph-name="exclam" unicode="!" horiz-adv-x="555" 
d="M401 104q0 -50 -35.5 -85t-86.5 -35q-54 0 -90.5 34.5t-36.5 85.5q0 54 36 90.5t88 36.5q54 0 89.5 -36.5t35.5 -90.5zM256 436l-16 51q-21 60 -48.5 273t-27.5 362q0 293 115 293q112 0 112 -285q0 -237 -45 -485l-27 -153l-16 -58q-9 -31 -27 -31q-11 0 -20 33z" />
    <glyph glyph-name="quotedbl" unicode="&#x22;" horiz-adv-x="725" 
d="M254 946h-111l-49 281v239h205v-239zM584 946h-109l-49 281v239h205v-239z" />
    <glyph glyph-name="numbersign" unicode="#" horiz-adv-x="1196" 
d="M4 871v123h326l86 403h121l-86 -403h421l84 403h123l-86 -403h199v-123h-223l-76 -371h299v-123h-324l-84 -399h-122l86 399h-424l-84 -399h-123l84 399h-197v123h223l78 371h-301zM848 871h-422l-78 -371h424z" />
    <glyph glyph-name="dollar" unicode="$" horiz-adv-x="1110" 
d="M657 1415v-74q199 -30 306 -120v-230q-125 128 -306 170v-405q182 -54 276.5 -157.5t94.5 -238.5t-93 -241q-46 -53 -107.5 -86t-170.5 -51v-222h-168v222q-170 16 -385 143v252q96 -87 185.5 -138t199.5 -73v440q-168 58 -236.5 108t-107.5 120.5t-39 142.5
q0 141 105 240.5t278 123.5v74h168zM489 809v352q-81 -11 -132.5 -58.5t-51.5 -111.5q0 -58 35 -96t124 -75q15 -6 25 -11zM688 522l-31 17v-371q172 40 172 176q0 59 -30.5 97.5t-110.5 80.5z" />
    <glyph glyph-name="percent" unicode="%" horiz-adv-x="1384" 
d="M1071 1417h153l-919 -1433h-154zM1021 608q128 0 220 -91.5t92 -219.5t-91.5 -217.5t-220.5 -89.5q-130 0 -221.5 89.5t-91.5 217.5q0 129 92 220t221 91zM1019 457q-66 0 -112.5 -47t-46.5 -113q0 -67 46.5 -114.5t112.5 -47.5q68 0 115 47t47 115q0 67 -47 113.5
t-115 46.5zM362 1413q129 0 220 -92t91 -221q0 -128 -91.5 -220t-219.5 -92t-219.5 92t-91.5 220q0 129 91 221t220 92zM360 1262q-67 0 -114.5 -47.5t-47.5 -114.5q0 -66 48 -113t114 -47q67 0 114.5 47t47.5 113q0 68 -47 115t-115 47z" />
    <glyph glyph-name="ampersand" unicode="&#x26;" horiz-adv-x="1280" 
d="M1014 0l-162 190q-21 -21 -72 -61l-2 -2q-71 -59 -175.5 -101t-196.5 -42q-145 0 -246 94.5t-101 230.5q0 98 49.5 177t161.5 161l3 3q66 49 114 75q-158 169 -158 324q0 143 97 232t252 89q152 0 250 -87t98 -222q0 -183 -244 -356l-14 -11l196 -225q86 94 150 225h200
q-72 -186 -227 -366l283 -328h-256zM684 289l45 41l-227 262l-88 -62q-156 -105 -156 -213q0 -59 51 -101t123 -42q56 0 126.5 32t125.5 83zM555 829l76 54q106 75 106 174q0 61 -44.5 102t-112.5 41q-66 0 -109 -38t-43 -95q0 -55 34 -119.5t93 -118.5z" />
    <glyph glyph-name="quotesingle" unicode="'" horiz-adv-x="385" 
d="M248 946h-113l-45 275v245h205v-245z" />
    <glyph glyph-name="parenleft" unicode="(" horiz-adv-x="662" 
d="M524 1415h113q-125 -186 -181.5 -318t-85 -302.5t-28.5 -329.5q0 -546 295 -934h-113l-30 37q-113 136 -167.5 223t-108.5 226q-87 222 -87 454q0 236 87 455.5t306 488.5z" />
    <glyph glyph-name="parenright" unicode=")" horiz-adv-x="662" 
d="M137 -469h-112q130 196 185 332.5t82 300t27 313.5q0 174 -31.5 337t-94 309.5t-168.5 291.5h112l31 -37q112 -133 166.5 -220t108.5 -227q87 -222 87 -458q0 -226 -79 -435q-39 -104 -98.5 -207t-215.5 -300z" />
    <glyph glyph-name="asterisk" unicode="*" horiz-adv-x="854" 
d="M444 1102h5q21 0 36 -21l172 164q54 51 95 51q27 0 46 -20.5t19 -50.5q0 -68 -78 -88l-22 -7l-219 -79q4 -13 4 -25t-4 -22l231 -87l45 -22q17 -10 30 -30.5t13 -37.5q0 -23 -19.5 -46t-45.5 -23q-50 0 -117 67l-150 150q-21 -21 -41 -21l41 -211q9 -39 9 -92
q0 -88 -68 -88q-70 0 -70 96q0 27 6 52l52 243q-19 2 -39 21l-160 -148q-75 -67 -113 -67q-27 0 -47 20t-20 47q0 66 123 107l202 70q-4 16 -4 24l4 23l-231 86q-90 32 -90 86q0 29 21 52t49 23q23 0 65 -32l27 -21l174 -164q17 19 39 21l-39 205l-10 43q-5 23 -5 45
q0 92 70 92q68 0 68 -82q0 -29 -13 -94z" />
    <glyph glyph-name="plus" unicode="+" horiz-adv-x="1196" 
d="M513 237v402h-399v168h399v399h170v-399h399v-168h-399v-402h-170z" />
    <glyph glyph-name="comma" unicode="," horiz-adv-x="449" 
d="M100 -242v37q45 43 63 86.5t21 118.5q-106 31 -106 131q0 54 36.5 93.5t86.5 39.5q61 0 100 -54t39 -138q0 -111 -64 -195t-176 -119z" />
    <glyph glyph-name="hyphen" unicode="-" horiz-adv-x="662" 
d="M82 551h498v-195h-498v195z" />
    <glyph glyph-name="period" unicode="." horiz-adv-x="449" 
d="M223 223q51 0 87 -35t36 -86q0 -50 -35.5 -84t-87.5 -34q-51 0 -86 34t-35 84q0 51 35 86t86 35z" />
    <glyph glyph-name="slash" unicode="/" horiz-adv-x="575" 
d="M5 -18l402 1434h144l-401 -1434h-145z" />
    <glyph glyph-name="zero" unicode="0" 
d="M520 1415q192 0 317.5 -201.5t125.5 -511.5q0 -318 -125.5 -517t-325.5 -199q-203 0 -326 195t-123 517q0 318 127 517.5t330 199.5zM522 1225h-10q-115 0 -182.5 -141.5t-67.5 -383.5q0 -248 66 -389t182 -141t183 141t67 383q0 243 -64.5 387t-173.5 144z" />
    <glyph glyph-name="one" unicode="1" 
d="M414 1397h200v-1397h-200v1397z" />
    <glyph glyph-name="two" unicode="2" 
d="M422 193h532v-193h-884v14l84 99q197 244 313.5 414t152 257t35.5 172q0 118 -67 189.5t-178 71.5q-84 0 -165.5 -49.5t-146.5 -139.5v254q163 133 336 133q183 0 301.5 -122t118.5 -310q0 -84 -29.5 -179.5t-104.5 -220t-255 -339.5z" />
    <glyph glyph-name="three" unicode="3" 
d="M369 813h12q131 0 199.5 54t68.5 157q0 93 -66.5 151t-174.5 58q-109 0 -242 -68v191q122 61 266 61q193 0 304.5 -101t111.5 -276q0 -106 -43 -178.5t-137 -124.5q82 -32 120 -78.5t59 -112.5t21 -140q0 -183 -122 -302.5t-308 -119.5q-159 0 -307 77v218
q158 -99 307 -99q101 0 162.5 60t61.5 159q0 83 -51 145q-30 35 -66.5 51.5t-157.5 31.5l-18 2v184z" />
    <glyph glyph-name="four" unicode="4" 
d="M727 1415h82v-784h156v-170h-156v-461h-195v461h-591v86zM614 631v405l-323 -405h323z" />
    <glyph glyph-name="five" unicode="5" 
d="M207 1397h620v-178h-438v-353q21 2 43 2q203 0 334 -123.5t131 -314.5q0 -197 -129.5 -320.5t-335.5 -123.5q-170 0 -330 82v206q151 -98 295 -98q126 0 211.5 73.5t85.5 180.5q0 111 -93 185.5t-232 74.5q-119 0 -162 -20v727z" />
    <glyph glyph-name="six" unicode="6" 
d="M629 1401l20 14l121 -153q-160 -103 -265.5 -225t-162.5 -287q111 57 221 57q165 0 278 -117t113 -287q0 -175 -123 -297t-299 -122q-197 0 -318.5 138.5t-121.5 362.5q0 168 62.5 334.5t180 312t294.5 269.5zM299 543q-8 -47 -8 -105q0 -118 68.5 -194t175.5 -76
q96 0 158.5 65t62.5 164q0 101 -66.5 163.5t-175.5 62.5q-56 0 -101.5 -17t-113.5 -63z" />
    <glyph glyph-name="seven" unicode="7" 
d="M100 1397h904l-633 -1413l-178 75l512 1147h-605v191z" />
    <glyph glyph-name="eight" unicode="8" 
d="M98 1022q0 164 123 278.5t301 114.5q175 0 295.5 -113.5t120.5 -279.5q0 -187 -174 -309q194 -112 194 -330q0 -173 -126 -286t-318 -113q-190 0 -319 115.5t-129 285.5q0 213 198 328q-89 72 -127.5 143.5t-38.5 165.5zM739 1016q0 91 -62.5 150t-158.5 59
q-97 0 -159 -58t-62 -149q0 -87 65.5 -149t157.5 -62q91 0 155 61.5t64 147.5zM756 375v20q0 96 -68.5 156.5t-177.5 60.5q-107 0 -174.5 -61t-67.5 -158t69 -158t179 -61q105 0 172.5 56t67.5 145z" />
    <glyph glyph-name="nine" unicode="9" 
d="M383 -16l-123 145q155 98 271 237.5t155 286.5q-95 -59 -223 -59q-160 0 -274.5 119t-114.5 286q0 174 122 295t298 121q198 0 324 -143t126 -367q0 -254 -158 -513.5t-403 -407.5zM725 852q12 80 12 104q0 121 -67.5 198t-173.5 77q-97 0 -160.5 -65.5t-63.5 -164.5
q0 -91 69 -157t165 -66q112 0 219 74z" />
    <glyph glyph-name="colon" unicode=":" horiz-adv-x="449" 
d="M215 227q51 0 87 -36t36 -87q0 -50 -36 -85t-87 -35q-49 0 -85 35t-36 85q0 51 35 87t86 36zM231 938q51 0 87 -36t36 -87q0 -50 -36 -85.5t-87 -35.5q-49 0 -84.5 35.5t-35.5 85.5q0 51 35 87t85 36z" />
    <glyph glyph-name="semicolon" unicode=";" horiz-adv-x="469" 
d="M207 -10l2 10q-107 31 -107 131q0 54 36.5 93.5t86.5 39.5q60 0 100 -55t40 -137q0 -111 -64 -195t-176 -119v37q43 41 61 84t21 111zM244 938q51 0 87 -36t36 -87q0 -50 -36 -85.5t-85 -35.5q-51 0 -87 35.5t-36 85.5q0 51 35.5 87t85.5 36z" />
    <glyph glyph-name="less" unicode="&#x3c;" horiz-adv-x="1196" 
d="M112 641v168l971 410v-179l-770 -316l770 -319v-179z" />
    <glyph glyph-name="equal" unicode="=" horiz-adv-x="1196" 
d="M1082 862h-968v168h968v-168zM1082 417h-968v168h968v-168z" />
    <glyph glyph-name="greater" unicode="&#x3e;" horiz-adv-x="1196" 
d="M1083 641l-971 -415v179l769 319l-769 316v179l971 -410v-168z" />
    <glyph glyph-name="question" unicode="?" horiz-adv-x="682" 
d="M133 1198l131 219q162 -6 246 -90.5t84 -208.5q0 -80 -32.5 -169.5t-145.5 -262.5q-131 -202 -131 -287q0 -13 6 -41q-68 31 -97.5 74.5t-29.5 116.5q0 70 23.5 125t113.5 196q86 136 86 226q0 62 -38.5 98.5t-102.5 36.5q-48 0 -113 -33zM438 104q0 -51 -36 -85.5
t-89 -34.5q-50 0 -84 34t-34 84q0 52 35 88.5t85 36.5q52 0 87.5 -35.5t35.5 -87.5z" />
    <glyph glyph-name="at" unicode="@" horiz-adv-x="2068" 
d="M1012 1083q192 0 301 -184l35 156h180l-160 -742q-14 -64 -14 -84q0 -28 20 -47.5t49 -19.5q65 0 166.5 83.5t160 209.5t58.5 262q0 270 -204 450.5t-510 180.5q-361 0 -597.5 -244.5t-236.5 -618.5q0 -364 227.5 -565t638.5 -201q242 0 422 82q68 32 141 81.5t136 135.5
h180q-59 -120 -198 -230.5t-303.5 -162t-381.5 -51.5q-471 0 -741.5 238.5t-270.5 653.5q0 287 133.5 535.5t353 370t507.5 121.5q372 0 614 -221t242 -561q0 -177 -86 -343.5t-227 -268t-291 -101.5q-101 0 -143.5 36.5t-51.5 129.5q-66 -78 -146 -121t-159 -43
q-155 0 -258.5 128t-103.5 318q0 157 74 306t195 240t249 91zM678 430q0 -124 61 -204.5t154 -80.5q139 0 250.5 155t111.5 349q0 130 -63.5 209.5t-167.5 79.5q-135 0 -240.5 -155.5t-105.5 -352.5z" />
    <glyph glyph-name="A" unicode="A" horiz-adv-x="1366" 
d="M600 1405h141l625 -1405h-205l-186 414h-594l-176 -414h-205zM893 592l-225 506l-209 -506h434z" />
    <glyph glyph-name="B" unicode="B" horiz-adv-x="1153" 
d="M627 0h-473v1397h366q173 0 270 -46.5t148 -128t51 -188.5q0 -206 -213 -295q153 -29 243.5 -126t90.5 -232q0 -107 -55 -191t-161.5 -137t-266.5 -53zM526 1219h-172v-420h133q160 0 227.5 61t67.5 158q0 201 -256 201zM541 621h-187v-443h197q164 0 222.5 25.5t94 79.5
t35.5 116q0 64 -37.5 117t-106.5 79t-218 26z" />
    <glyph glyph-name="C" unicode="C" horiz-adv-x="1450" 
d="M1358 324v-220q-220 -120 -508 -120q-234 0 -397 94t-258 259t-95 357q0 305 217.5 513t536.5 208q220 0 489 -115v-215q-245 140 -479 140q-240 0 -398.5 -151.5t-158.5 -379.5q0 -230 156 -378t399 -148q254 0 496 156z" />
    <glyph glyph-name="D" unicode="D" horiz-adv-x="1536" 
d="M156 2v1395h471q285 0 451 -85.5t264 -251.5t98 -362q0 -140 -54 -268t-154 -225q-102 -100 -237 -151q-79 -31 -145 -41.5t-252 -10.5h-442zM606 1219h-250v-1039h256q150 0 233 20.5t138.5 52t101.5 77.5q148 150 148 379q0 225 -152 367q-56 53 -128.5 87t-137.5 45
t-209 11z" />
    <glyph glyph-name="E" unicode="E" 
d="M154 1397h792v-178h-592v-426h572v-179h-572v-434h611v-178h-811v1395z" />
    <glyph glyph-name="F" unicode="F" horiz-adv-x="961" 
d="M156 1397h745v-178h-545v-390h545v-178h-545v-651h-200v1397z" />
    <glyph glyph-name="G" unicode="G" horiz-adv-x="1516" 
d="M909 688h469v-592q-258 -112 -512 -112q-347 0 -554.5 202.5t-207.5 499.5q0 313 215 521t539 208q118 0 224 -25.5t268 -93.5v-204q-250 145 -496 145q-229 0 -386 -156t-157 -383q0 -238 157 -389t404 -151q120 0 287 55l19 6v291h-269v178z" />
    <glyph glyph-name="H" unicode="H" horiz-adv-x="1493" 
d="M1139 1397h200v-1397h-200v608h-785v-608h-200v1397h200v-604h785v604z" />
    <glyph glyph-name="I" unicode="I" horiz-adv-x="512" 
d="M156 1397h200v-1397h-200v1397z" />
    <glyph glyph-name="J" unicode="J" horiz-adv-x="512" 
d="M156 1397h200v-1379q0 -193 -39.5 -285.5t-127.5 -148t-212 -55.5q-19 0 -65 6l-37 186h51q86 0 131.5 21t72 74t26.5 225v1356z" />
    <glyph glyph-name="K" unicode="K" horiz-adv-x="1343" 
d="M944 1397h250l-606 -662l755 -735h-274l-713 690v-690h-200v1397h200v-639z" />
    <glyph glyph-name="L" unicode="L" horiz-adv-x="1004" 
d="M154 1397h200v-1215h629v-182h-829v1397z" />
    <glyph glyph-name="M" unicode="M" horiz-adv-x="1599" 
d="M1266 1397h186v-1397h-201v1087l-430 -540h-37l-434 540v-1087h-200v1397h188l465 -574z" />
    <glyph glyph-name="N" unicode="N" horiz-adv-x="1599" 
d="M1264 1397h190v-1397h-172l-934 1075v-1075h-188v1397h162l942 -1084v1084z" />
    <glyph glyph-name="O" unicode="O" horiz-adv-x="1686" 
d="M840 1417q324 0 539.5 -205t215.5 -514t-217.5 -511.5t-548.5 -202.5q-316 0 -526.5 202.5t-210.5 507.5q0 313 212 518t536 205zM848 1227q-240 0 -394.5 -150t-154.5 -383q0 -226 155 -376t388 -150q234 0 390.5 153t156.5 381q0 222 -156.5 373.5t-384.5 151.5z" />
    <glyph glyph-name="P" unicode="P" horiz-adv-x="1044" 
d="M143 0v1399h443q200 0 319 -108t119 -290q0 -122 -61 -216t-167 -136.5t-304 -42.5h-148v-606h-201zM551 1221h-207v-437h219q122 0 188 57.5t66 164.5q0 215 -266 215z" />
    <glyph glyph-name="Q" unicode="Q" horiz-adv-x="1686" 
d="M1563 -88l-201 -195q-94 5 -196.5 33.5t-208 78.5t-281.5 171q-255 46 -420.5 242t-165.5 452q0 313 213 518t539 205q324 0 538.5 -203.5t214.5 -511.5q0 -259 -162 -455t-419 -247l53 -20q247 -95 356 -95q60 0 140 27zM842 1227q-236 0 -390 -152t-154 -383
q0 -225 155 -374.5t389 -149.5q231 0 389 153t158 377q0 229 -155 379t-392 150z" />
    <glyph glyph-name="R" unicode="R" horiz-adv-x="1237" 
d="M160 0v1397h350q212 0 336.5 -105t124.5 -284q0 -122 -61 -211t-175 -133q67 -44 131 -120t180 -265q73 -119 117 -179l74 -100h-238l-61 92q-3 5 -12 17l-39 55l-62 102l-67 109q-62 86 -113.5 137t-93 73.5t-139.5 22.5h-52v-608h-200zM420 1227h-60v-441h76
q152 0 208.5 26t88 78.5t31.5 119.5q0 66 -35 119.5t-98.5 75.5t-210.5 22z" />
    <glyph glyph-name="S" unicode="S" horiz-adv-x="938" 
d="M500 586l-152 92q-143 87 -203.5 171.5t-60.5 194.5q0 165 114.5 268t297.5 103q175 0 321 -98v-227q-151 145 -325 145q-98 0 -161 -45.5t-63 -116.5q0 -63 46 -118t149 -115l153 -90q256 -152 256 -388q0 -168 -112.5 -273t-292.5 -105q-207 0 -377 127v254
q162 -205 375 -205q94 0 156.5 52.5t62.5 131.5q0 128 -184 242z" />
    <glyph glyph-name="T" unicode="T" horiz-adv-x="1237" 
d="M35 1399h1167v-178h-487v-1221h-201v1221h-479v178z" />
    <glyph glyph-name="U" unicode="U" horiz-adv-x="1450" 
d="M1126 1397h201v-793q0 -161 -23.5 -243t-58 -136.5t-84.5 -97.5q-166 -143 -434 -143q-273 0 -438 142q-50 44 -84.5 98.5t-57 133.5t-22.5 248v791h201v-793q0 -197 45 -274t137 -123.5t217 -46.5q178 0 290 93q59 50 85 118t26 233v793z" />
    <glyph glyph-name="V" unicode="V" horiz-adv-x="1237" 
d="M1038 1397h199l-590 -1403h-45l-602 1403h201l420 -981z" />
    <glyph glyph-name="W" unicode="W" horiz-adv-x="2134" 
d="M1933 1397h199l-565 -1403h-43l-457 1136l-461 -1136h-43l-563 1403h201l385 -963l387 963h190l389 -963z" />
    <glyph glyph-name="X" unicode="X" horiz-adv-x="1450" 
d="M1165 1397h242l-557 -674l596 -723h-242l-475 578l-481 -578h-244l602 723l-559 674h244l438 -533z" />
    <glyph glyph-name="Y" unicode="Y" horiz-adv-x="1237" 
d="M995 1397h242l-516 -658v-739h-205v739l-516 658h242l374 -482z" />
    <glyph glyph-name="Z" unicode="Z" horiz-adv-x="1323" 
d="M82 1399h1204l-893 -1221h893v-178h-1261l895 1221h-838v178z" />
    <glyph glyph-name="bracketleft" unicode="[" horiz-adv-x="682" 
d="M176 1397h477v-164h-280v-1520h280v-164h-477v1848z" />
    <glyph glyph-name="backslash" unicode="\" horiz-adv-x="575" 
d="M426 -18l-402 1434h145l401 -1434h-144z" />
    <glyph glyph-name="bracketright" unicode="]" horiz-adv-x="682" 
d="M506 -451h-475v164h278v1520h-278v164h475v-1848z" />
    <glyph glyph-name="asciicircum" unicode="^" horiz-adv-x="961" 
d="M479 1194l-241 -598h-185l355 801h145l354 -801h-182z" />
    <glyph glyph-name="underscore" unicode="_" horiz-adv-x="1130" 
d="M1161 -406h-1190v132h1190v-132z" />
    <glyph glyph-name="grave" unicode="`" horiz-adv-x="683" 
d="M327 1419l138 -300h-112l-230 300h204z" />
    <glyph glyph-name="a" unicode="a" horiz-adv-x="874" 
d="M707 553v-391q0 -47 32 -47q33 0 103 49v-111q-62 -40 -99.5 -54.5t-78.5 -14.5q-117 0 -138 92q-116 -90 -247 -90q-96 0 -160 63.5t-64 159.5q0 87 62.5 155.5t177.5 108.5l233 80v49q0 166 -166 166q-149 0 -290 -154v199q106 125 305 125q149 0 239 -78
q30 -25 54 -66.5t30.5 -83t6.5 -157.5zM528 182v273l-122 -47q-93 -37 -131.5 -74.5t-38.5 -93.5q0 -57 36.5 -93t94.5 -36q87 0 161 71z" />
    <glyph glyph-name="b" unicode="b" 
d="M121 1397h182v-543q118 86 252 86q175 0 286 -132t111 -339q0 -222 -132.5 -353.5t-354.5 -131.5q-89 0 -187.5 19t-156.5 48v1346zM303 680v-498q93 -28 191 -28q121 0 197.5 86t76.5 221q0 137 -71.5 223t-186.5 86q-102 0 -207 -90z" />
    <glyph glyph-name="c" unicode="c" horiz-adv-x="897" 
d="M819 215v-180q-137 -51 -268 -51q-216 0 -344.5 128t-128.5 343q0 217 125 350t329 133q71 0 127.5 -13.5t139.5 -50.5v-194q-138 88 -256 88q-123 0 -202 -86.5t-79 -220.5q0 -141 85.5 -224t230.5 -83q105 0 241 61z" />
    <glyph glyph-name="d" unicode="d" horiz-adv-x="1044" 
d="M743 1397h183v-1397h-389q-204 0 -325.5 129t-121.5 346q0 203 127.5 334t325.5 131q92 0 200 -39v496zM743 156v583q-85 43 -172 43q-136 0 -216.5 -89t-80.5 -240q0 -142 70 -219q42 -46 89 -62t169 -16h141z" />
    <glyph glyph-name="e" unicode="e" horiz-adv-x="981" 
d="M913 444h-647q7 -132 88.5 -210t210.5 -78q180 0 332 112v-178q-84 -56 -166.5 -80t-193.5 -24q-152 0 -246 63t-150.5 169.5t-56.5 246.5q0 210 119 341.5t309 131.5q183 0 292 -128t109 -343v-23zM270 553h463q-7 109 -65 168t-156 59t-160.5 -59t-81.5 -168z" />
    <glyph glyph-name="f" unicode="f" horiz-adv-x="512" 
d="M150 920v55q0 222 94.5 331t226.5 109q57 0 135 -18v-178q-44 16 -84 16q-107 0 -148.5 -57t-41.5 -203v-55h164v-164h-164v-756h-182v756h-132v164h132z" />
    <glyph glyph-name="g" unicode="g" horiz-adv-x="874" 
d="M82 602q0 147 107.5 232.5t293.5 85.5h379v-142h-186q54 -55 75 -100t21 -103q0 -72 -41 -141.5t-105.5 -106.5t-211.5 -59q-103 -15 -103 -71q0 -32 38.5 -52.5t139.5 -42.5q169 -37 217.5 -58t87.5 -60q66 -66 66 -166q0 -131 -116.5 -209t-311.5 -78
q-197 0 -314.5 78.5t-117.5 210.5q0 187 231 241q-92 59 -92 117q0 44 39.5 80t106.5 53q-203 90 -203 291zM424 762q-74 0 -126 -50t-52 -120q0 -71 51 -117.5t129 -46.5q77 0 128.5 47.5t51.5 118.5q0 72 -52 120t-130 48zM381 -43q-92 0 -150.5 -39t-58.5 -100
q0 -142 256 -142q121 0 187.5 35.5t66.5 100.5q0 64 -84 104.5t-217 40.5z" />
    <glyph glyph-name="h" unicode="h" 
d="M125 1397h182v-598q114 139 283 139q92 0 165 -46t108.5 -127t35.5 -241v-524h-182v569q0 101 -49.5 162.5t-130.5 61.5q-60 0 -113 -31t-117 -103v-659h-182v1397z" />
    <glyph glyph-name="i" unicode="i" horiz-adv-x="449" 
d="M223 1307q45 0 77 -31t32 -76q0 -44 -32 -76t-77 -32q-42 0 -74 32.5t-32 75.5q0 42 32 74.5t74 32.5zM133 920h182v-920h-182v920z" />
    <glyph glyph-name="j" unicode="j" horiz-adv-x="449" 
d="M213 1307q45 0 77 -31.5t32 -75.5q0 -46 -30.5 -77t-76.5 -31q-43 0 -76 32t-33 76q0 42 32.5 74.5t74.5 32.5zM127 920h182v-1051q0 -239 -184 -338l-135 133q63 22 100 77t37 128v1051z" />
    <glyph glyph-name="k" unicode="k" horiz-adv-x="981" 
d="M727 920h217l-393 -451l473 -469h-244l-461 469zM129 1397h182v-1397h-182v1397z" />
    <glyph glyph-name="l" unicode="l" horiz-adv-x="449" 
d="M133 1397h182v-1397h-182v1397z" />
    <glyph glyph-name="m" unicode="m" horiz-adv-x="1579" 
d="M883 668v-668h-183v512q0 153 -41 213.5t-143 60.5q-57 0 -104.5 -26t-108.5 -92v-668h-182v920h182v-121q139 139 272 139q175 0 271 -166q146 168 305 168q134 0 220.5 -98t86.5 -299v-543h-182v545q0 115 -47 176t-135 61q-113 0 -211 -114z" />
    <glyph glyph-name="n" unicode="n" 
d="M311 920v-117q122 135 277 135q86 0 160 -44.5t112.5 -122t38.5 -245.5v-526h-182v524q0 141 -43 201.5t-144 60.5q-129 0 -219 -129v-657h-186v920h186z" />
    <glyph glyph-name="o" unicode="o" horiz-adv-x="1130" 
d="M569 922q210 0 349 -135.5t139 -340.5q0 -199 -141 -330.5t-355 -131.5q-207 0 -346 133.5t-139 333.5q0 202 140.5 336.5t352.5 134.5zM559 758q-131 0 -215 -86t-84 -219q0 -132 86 -215.5t221 -83.5q134 0 219.5 84.5t85.5 216.5q0 131 -89 217t-224 86z" />
    <glyph glyph-name="p" unicode="p" 
d="M117 -469v1389h319q245 0 381.5 -122t136.5 -341q0 -207 -128.5 -340t-327.5 -133q-88 0 -195 39v-492h-186zM432 750h-129v-566q84 -43 176 -43q128 0 209.5 89t81.5 229q0 90 -38.5 159t-105 100.5t-194.5 31.5z" />
    <glyph glyph-name="q" unicode="q" 
d="M563 920h344v-1389h-182v485q-119 -32 -201 -32q-196 0 -324 132t-128 335q0 215 133 342t358 127zM725 174v576h-115q-118 0 -157.5 -10.5t-68.5 -29t-53 -45.5q-75 -85 -75 -210q0 -141 84.5 -230.5t218.5 -89.5q31 0 51 4t88 27l14 4z" />
    <glyph glyph-name="r" unicode="r" horiz-adv-x="811" 
d="M324 920v-211l10 16q132 213 264 213q103 0 215 -104l-96 -160q-95 90 -176 90q-88 0 -152.5 -84t-64.5 -199v-481h-183v920h183z" />
    <glyph glyph-name="s" unicode="s" horiz-adv-x="788" 
d="M84 66v196q77 -54 157.5 -87.5t135.5 -33.5q57 0 98 28t41 67q0 40 -26.5 66.5t-114.5 76.5q-176 98 -230.5 167.5t-54.5 151.5q0 106 82.5 173t212.5 67q135 0 277 -76v-180q-162 98 -265 98q-53 0 -85.5 -22.5t-32.5 -59.5q0 -32 29.5 -61t103.5 -70l65 -37
q230 -130 230 -288q0 -113 -88.5 -185.5t-227.5 -72.5q-82 0 -146 17.5t-161 64.5z" />
    <glyph glyph-name="t" unicode="t" horiz-adv-x="682" 
d="M0 774l342 336v-190h291v-164h-291v-451q0 -158 131 -158q98 0 207 66v-170q-105 -59 -229 -59q-125 0 -208 73q-26 22 -43 49.5t-28.5 72t-11.5 169.5v408h-160v18z" />
    <glyph glyph-name="u" unicode="u" 
d="M715 0v117q-58 -63 -132.5 -98t-148.5 -35q-87 0 -160.5 43.5t-111 118t-37.5 247.5v527h182v-525q0 -145 41.5 -202.5t145.5 -57.5q130 0 221 127v658h182v-920h-182z" />
    <glyph glyph-name="v" unicode="v" horiz-adv-x="897" 
d="M692 920h197l-406 -936h-61l-416 936h199l248 -566z" />
    <glyph glyph-name="w" unicode="w" horiz-adv-x="1473" 
d="M1278 920h195l-406 -936h-57l-273 641l-268 -641h-59l-410 936h195l241 -558l234 558h135l233 -558z" />
    <glyph glyph-name="x" unicode="x" 
d="M764 920h233l-379 -453l406 -467h-233l-289 330l-273 -330h-229l387 467l-387 453h229l273 -316z" />
    <glyph glyph-name="y" unicode="y" horiz-adv-x="897" 
d="M692 920h205l-651 -1389h-203l313 666l-356 723h207l248 -519z" />
    <glyph glyph-name="z" unicode="z" horiz-adv-x="854" 
d="M43 920h786l-487 -750h487v-170h-806l483 750h-463v170z" />
    <glyph glyph-name="braceleft" unicode="{" horiz-adv-x="682" 
d="M57 449v163q72 0 121.5 35.5t67 105t18.5 246.5q2 212 14.5 280.5t57.5 124.5q39 49 92 68t152 19h57v-156h-33q-105 0 -137.5 -39.5t-32.5 -167.5v-147q0 -133 -19 -217.5t-60.5 -138t-131.5 -95.5q118 -49 164.5 -148t46.5 -304v-144q0 -128 32 -167t138 -39h33v-156
h-57q-102 0 -155.5 19.5t-91.5 69.5q-43 57 -55 125t-14 275q-1 180 -19.5 249t-70.5 104t-117 35z" />
    <glyph glyph-name="bar" unicode="|" horiz-adv-x="532" 
d="M188 -472v1869h157v-1869h-157z" />
    <glyph glyph-name="braceright" unicode="}" horiz-adv-x="682" 
d="M47 1491h55q101 0 155 -19.5t91 -69.5q44 -58 56.5 -126t15.5 -277q0 -176 17 -246t66.5 -105.5t121.5 -35.5v-163q-65 0 -118 -35.5t-71 -106t-19 -246.5q-1 -208 -13 -276.5t-56 -125.5q-39 -50 -91 -68.5t-155 -18.5h-55v156h31q107 0 139.5 39t32.5 167v144
q0 204 46 303.5t163 148.5q-85 41 -125 87t-62 133.5t-22 230.5v147q0 129 -33 168t-139 39h-31v156z" />
    <glyph glyph-name="asciitilde" unicode="~" horiz-adv-x="1194" 
d="M348 670q-69 0 -125 -28.5t-137 -106.5v204q109 121 279 121q115 0 274 -69l80 -35q62 -29 133 -29q132 0 258 135v-211q-122 -114 -276 -114q-105 0 -246 61l-62 27q-104 45 -178 45z" />
    <glyph glyph-name="Adieresis" unicode="&#xc4;" horiz-adv-x="1366" 
d="M600 1405h141l625 -1405h-205l-186 414h-594l-176 -414h-205zM893 592l-225 506l-209 -506h434zM490 1706q39 0 67.5 -28t28.5 -68t-27 -67.5t-66 -27.5q-40 0 -68 28.5t-28 67.5q0 40 27.5 67.5t65.5 27.5zM875 1706q39 0 67.5 -28t28.5 -68t-27 -67.5t-66 -27.5
q-40 0 -68 28.5t-28 67.5q0 40 27.5 67.5t65.5 27.5z" />
    <glyph glyph-name="Aring" unicode="&#xc5;" horiz-adv-x="1366" 
d="M600 1405h141l625 -1405h-205l-186 414h-594l-176 -414h-205zM893 592l-225 506l-209 -506h434zM685 1880q77 0 132.5 -55t55.5 -134t-55.5 -135t-134.5 -56q-78 0 -133.5 55.5t-55.5 133.5q0 80 56.5 135.5t134.5 55.5zM680 1799q-51 0 -81.5 -30.5t-30.5 -79.5
q0 -48 33.5 -81.5t81.5 -33.5t82 33t34 80t-34 79.5t-85 32.5z" />
    <glyph glyph-name="Ccedilla" unicode="&#xc7;" horiz-adv-x="1450" 
d="M846 -16l-5 -17q54 -13 84.5 -50t30.5 -84q0 -76 -61 -129.5t-195 -53.5q-37 0 -65 5v113q51 -4 64 -4q57 0 89 22q19 13 19 34q0 24 -20.5 40t-75.5 16q-11 0 -23 -3l42 118q-159 18 -277 87q-164 95 -258.5 259.5t-94.5 356.5q0 305 217.5 513t536.5 208
q220 0 489 -115v-215q-245 140 -479 140q-240 0 -398.5 -151.5t-158.5 -379.5q0 -230 156 -378t399 -148q254 0 496 156v-220q-220 -120 -508 -120h-4z" />
    <glyph glyph-name="Eacute" unicode="&#xc9;" 
d="M154 1397h792v-178h-592v-426h572v-179h-572v-434h611v-178h-811v1395zM736 1800l-226 -300h-112l135 300h203z" />
    <glyph glyph-name="Ntilde" unicode="&#xd1;" horiz-adv-x="1599" 
d="M1264 1397h190v-1397h-172l-934 1075v-1075h-188v1397h162l942 -1084v1084zM1126 1777q-1 -121 -56 -189q-42 -53 -105 -53q-55 0 -148 40t-140 40q-26 0 -45 -20t-23 -60h-84q16 141 58 188.5t106 47.5q58 0 189 -53q67 -27 96 -27q28 0 47.5 19.5t26.5 66.5h78z" />
    <glyph glyph-name="Odieresis" unicode="&#xd6;" horiz-adv-x="1686" 
d="M840 1417q324 0 539.5 -205t215.5 -514t-217.5 -511.5t-548.5 -202.5q-316 0 -526.5 202.5t-210.5 507.5q0 313 212 518t536 205zM848 1227q-240 0 -394.5 -150t-154.5 -383q0 -226 155 -376t388 -150q234 0 390.5 153t156.5 381q0 222 -156.5 373.5t-384.5 151.5z
M637 1706q39 0 67.5 -28t28.5 -68t-27 -67.5t-66 -27.5q-40 0 -68 28.5t-28 67.5q0 40 27.5 67.5t65.5 27.5zM1022 1706q39 0 67.5 -28t28.5 -68t-27 -67.5t-66 -27.5q-40 0 -68 28.5t-28 67.5q0 40 27.5 67.5t65.5 27.5z" />
    <glyph glyph-name="Udieresis" unicode="&#xdc;" horiz-adv-x="1450" 
d="M1126 1397h201v-793q0 -161 -23.5 -243t-58 -136.5t-84.5 -97.5q-166 -143 -434 -143q-273 0 -438 142q-50 44 -84.5 98.5t-57 133.5t-22.5 248v791h201v-793q0 -197 45 -274t137 -123.5t217 -46.5q178 0 290 93q59 50 85 118t26 233v793zM533 1706q39 0 67.5 -28
t28.5 -68t-27 -67.5t-66 -27.5q-40 0 -68 28.5t-28 67.5q0 40 27.5 67.5t65.5 27.5zM918 1706q39 0 67.5 -28t28.5 -68t-27 -67.5t-66 -27.5q-40 0 -68 28.5t-28 67.5q0 40 27.5 67.5t65.5 27.5z" />
    <glyph glyph-name="aacute" unicode="&#xe1;" horiz-adv-x="874" 
d="M707 553v-391q0 -47 32 -47q33 0 103 49v-111q-62 -40 -99.5 -54.5t-78.5 -14.5q-117 0 -138 92q-116 -90 -247 -90q-96 0 -160 63.5t-64 159.5q0 87 62.5 155.5t177.5 108.5l233 80v49q0 166 -166 166q-149 0 -290 -154v199q106 125 305 125q149 0 239 -78
q30 -25 54 -66.5t30.5 -83t6.5 -157.5zM528 182v273l-122 -47q-93 -37 -131.5 -74.5t-38.5 -93.5q0 -57 36.5 -93t94.5 -36q87 0 161 71zM662 1419l-226 -300h-112l135 300h203z" />
    <glyph glyph-name="agrave" unicode="&#xe0;" horiz-adv-x="874" 
d="M707 553v-391q0 -47 32 -47q33 0 103 49v-111q-62 -40 -99.5 -54.5t-78.5 -14.5q-117 0 -138 92q-116 -90 -247 -90q-96 0 -160 63.5t-64 159.5q0 87 62.5 155.5t177.5 108.5l233 80v49q0 166 -166 166q-149 0 -290 -154v199q106 125 305 125q149 0 239 -78
q30 -25 54 -66.5t30.5 -83t6.5 -157.5zM528 182v273l-122 -47q-93 -37 -131.5 -74.5t-38.5 -93.5q0 -57 36.5 -93t94.5 -36q87 0 161 71zM423 1420l138 -300h-112l-230 300h204z" />
    <glyph glyph-name="acircumflex" unicode="&#xe2;" horiz-adv-x="874" 
d="M707 553v-391q0 -47 32 -47q33 0 103 49v-111q-62 -40 -99.5 -54.5t-78.5 -14.5q-117 0 -138 92q-116 -90 -247 -90q-96 0 -160 63.5t-64 159.5q0 87 62.5 155.5t177.5 108.5l233 80v49q0 166 -166 166q-149 0 -290 -154v199q106 125 305 125q149 0 239 -78
q30 -25 54 -66.5t30.5 -83t6.5 -157.5zM528 182v273l-122 -47q-93 -37 -131.5 -74.5t-38.5 -93.5q0 -57 36.5 -93t94.5 -36q87 0 161 71zM529 1427l193 -309h-112l-179 177l-171 -177h-108l187 309h190z" />
    <glyph glyph-name="adieresis" unicode="&#xe4;" horiz-adv-x="874" 
d="M707 553v-391q0 -47 32 -47q33 0 103 49v-111q-62 -40 -99.5 -54.5t-78.5 -14.5q-117 0 -138 92q-116 -90 -247 -90q-96 0 -160 63.5t-64 159.5q0 87 62.5 155.5t177.5 108.5l233 80v49q0 166 -166 166q-149 0 -290 -154v199q106 125 305 125q149 0 239 -78
q30 -25 54 -66.5t30.5 -83t6.5 -157.5zM528 182v273l-122 -47q-93 -37 -131.5 -74.5t-38.5 -93.5q0 -57 36.5 -93t94.5 -36q87 0 161 71zM244 1366q39 0 67.5 -28t28.5 -68t-27 -67.5t-66 -27.5q-40 0 -68 28.5t-28 67.5q0 40 27.5 67.5t65.5 27.5zM629 1366q39 0 67.5 -28
t28.5 -68t-27 -67.5t-66 -27.5q-40 0 -68 28.5t-28 67.5q0 40 27.5 67.5t65.5 27.5z" />
    <glyph glyph-name="atilde" unicode="&#xe3;" horiz-adv-x="874" 
d="M707 553v-391q0 -47 32 -47q33 0 103 49v-111q-62 -40 -99.5 -54.5t-78.5 -14.5q-117 0 -138 92q-116 -90 -247 -90q-96 0 -160 63.5t-64 159.5q0 87 62.5 155.5t177.5 108.5l233 80v49q0 166 -166 166q-149 0 -290 -154v199q106 125 305 125q149 0 239 -78
q30 -25 54 -66.5t30.5 -83t6.5 -157.5zM528 182v273l-122 -47q-93 -37 -131.5 -74.5t-38.5 -93.5q0 -57 36.5 -93t94.5 -36q87 0 161 71zM738 1397q-1 -121 -56 -189q-42 -53 -105 -53q-55 0 -148 40t-140 40q-26 0 -45 -20t-23 -60h-84q16 141 58 188.5t106 47.5
q58 0 189 -53q67 -27 96 -27q28 0 47.5 19.5t26.5 66.5h78z" />
    <glyph glyph-name="aring" unicode="&#xe5;" horiz-adv-x="874" 
d="M707 553v-391q0 -47 32 -47q33 0 103 49v-111q-62 -40 -99.5 -54.5t-78.5 -14.5q-117 0 -138 92q-116 -90 -247 -90q-96 0 -160 63.5t-64 159.5q0 87 62.5 155.5t177.5 108.5l233 80v49q0 166 -166 166q-149 0 -290 -154v199q106 125 305 125q149 0 239 -78
q30 -25 54 -66.5t30.5 -83t6.5 -157.5zM528 182v273l-122 -47q-93 -37 -131.5 -74.5t-38.5 -93.5q0 -57 36.5 -93t94.5 -36q87 0 161 71zM439 1497q77 0 132.5 -55t55.5 -134t-55.5 -135t-134.5 -56q-78 0 -133.5 55.5t-55.5 133.5q0 80 56.5 135.5t134.5 55.5zM434 1416
q-51 0 -81.5 -30.5t-30.5 -79.5q0 -48 33.5 -81.5t81.5 -33.5t82 33t34 80t-34 79.5t-85 32.5z" />
    <glyph glyph-name="ccedilla" unicode="&#xe7;" horiz-adv-x="897" 
d="M538 -16l-5 -17q54 -13 84.5 -50t30.5 -84q0 -76 -61 -129.5t-195 -53.5q-37 0 -65 5v113q51 -4 64 -4q57 0 89 22q19 13 19 34q0 24 -20.5 40t-75.5 16q-11 0 -23 -3l44 123q-130 29 -238 136.5t-108 322.5q0 217 125 350t329 133q71 0 127.5 -13.5t139.5 -50.5v-194
q-138 88 -256 88q-123 0 -202 -86.5t-79 -220.5q0 -141 85.5 -224t230.5 -83q105 0 241 61v-180q-137 -51 -268 -51h-13z" />
    <glyph glyph-name="eacute" unicode="&#xe9;" horiz-adv-x="981" 
d="M913 444h-647q7 -132 88.5 -210t210.5 -78q180 0 332 112v-178q-84 -56 -166.5 -80t-193.5 -24q-152 0 -246 63t-150.5 169.5t-56.5 246.5q0 210 119 341.5t309 131.5q183 0 292 -128t109 -343v-23zM270 553h463q-7 109 -65 168t-156 59t-160.5 -59t-81.5 -168zM716 1419
l-226 -300h-112l135 300h203z" />
    <glyph glyph-name="egrave" unicode="&#xe8;" horiz-adv-x="981" 
d="M913 444h-647q7 -132 88.5 -210t210.5 -78q180 0 332 112v-178q-84 -56 -166.5 -80t-193.5 -24q-152 0 -246 63t-150.5 169.5t-56.5 246.5q0 210 119 341.5t309 131.5q183 0 292 -128t109 -343v-23zM270 553h463q-7 109 -65 168t-156 59t-160.5 -59t-81.5 -168zM477 1419
l138 -300h-112l-230 300h204z" />
    <glyph glyph-name="ecircumflex" unicode="&#xea;" horiz-adv-x="981" 
d="M913 444h-647q7 -132 88.5 -210t210.5 -78q180 0 332 112v-178q-84 -56 -166.5 -80t-193.5 -24q-152 0 -246 63t-150.5 169.5t-56.5 246.5q0 210 119 341.5t309 131.5q183 0 292 -128t109 -343v-23zM270 553h463q-7 109 -65 168t-156 59t-160.5 -59t-81.5 -168zM582 1427
l193 -309h-112l-179 177l-171 -177h-108l187 309h190z" />
    <glyph glyph-name="edieresis" unicode="&#xeb;" horiz-adv-x="981" 
d="M913 444h-647q7 -132 88.5 -210t210.5 -78q180 0 332 112v-178q-84 -56 -166.5 -80t-193.5 -24q-152 0 -246 63t-150.5 169.5t-56.5 246.5q0 210 119 341.5t309 131.5q183 0 292 -128t109 -343v-23zM270 553h463q-7 109 -65 168t-156 59t-160.5 -59t-81.5 -168zM297 1366
q39 0 67.5 -28t28.5 -68t-27 -67.5t-66 -27.5q-40 0 -68 28.5t-28 67.5q0 40 27.5 67.5t65.5 27.5zM682 1366q39 0 67.5 -28t28.5 -68t-27 -67.5t-66 -27.5q-40 0 -68 28.5t-28 67.5q0 40 27.5 67.5t65.5 27.5z" />
    <glyph glyph-name="iacute" unicode="&#xed;" horiz-adv-x="449" 
d="M133 920h182v-920h-182v920zM522 1419l-226 -300h-112l135 300h203z" />
    <glyph glyph-name="igrave" unicode="&#xec;" horiz-adv-x="449" 
d="M133 920h182v-920h-182v920zM167 1419l138 -300h-112l-230 300h204z" />
    <glyph glyph-name="icircumflex" unicode="&#xee;" horiz-adv-x="449" 
d="M133 920h182v-920h-182v920zM332 1427l193 -309h-112l-179 177l-171 -177h-108l187 309h190z" />
    <glyph glyph-name="idieresis" unicode="&#xef;" horiz-adv-x="449" 
d="M133 920h182v-920h-182v920zM31 1366q39 0 67.5 -28t28.5 -68t-27 -67.5t-66 -27.5q-40 0 -68 28.5t-28 67.5q0 40 27.5 67.5t65.5 27.5zM416 1366q39 0 67.5 -28t28.5 -68t-27 -67.5t-66 -27.5q-40 0 -68 28.5t-28 67.5q0 40 27.5 67.5t65.5 27.5z" />
    <glyph glyph-name="ntilde" unicode="&#xf1;" 
d="M311 920v-117q122 135 277 135q86 0 160 -44.5t112.5 -122t38.5 -245.5v-526h-182v524q0 141 -43 201.5t-144 60.5q-129 0 -219 -129v-657h-186v920h186zM812 1397q-1 -121 -56 -189q-42 -53 -105 -53q-55 0 -148 40t-140 40q-26 0 -45 -20t-23 -60h-84q16 141 58 188.5
t106 47.5q58 0 189 -53q67 -27 96 -27q28 0 47.5 19.5t26.5 66.5h78z" />
    <glyph glyph-name="oacute" unicode="&#xf3;" horiz-adv-x="1130" 
d="M569 922q210 0 349 -135.5t139 -340.5q0 -199 -141 -330.5t-355 -131.5q-207 0 -346 133.5t-139 333.5q0 202 140.5 336.5t352.5 134.5zM559 758q-131 0 -215 -86t-84 -219q0 -132 86 -215.5t221 -83.5q134 0 219.5 84.5t85.5 216.5q0 131 -89 217t-224 86zM771 1419
l-226 -300h-112l135 300h203z" />
    <glyph glyph-name="ograve" unicode="&#xf2;" horiz-adv-x="1130" 
d="M569 922q210 0 349 -135.5t139 -340.5q0 -199 -141 -330.5t-355 -131.5q-207 0 -346 133.5t-139 333.5q0 202 140.5 336.5t352.5 134.5zM559 758q-131 0 -215 -86t-84 -219q0 -132 86 -215.5t221 -83.5q134 0 219.5 84.5t85.5 216.5q0 131 -89 217t-224 86zM489 1419
l138 -300h-112l-230 300h204z" />
    <glyph glyph-name="ocircumflex" unicode="&#xf4;" horiz-adv-x="1130" 
d="M569 922q210 0 349 -135.5t139 -340.5q0 -199 -141 -330.5t-355 -131.5q-207 0 -346 133.5t-139 333.5q0 202 140.5 336.5t352.5 134.5zM559 758q-131 0 -215 -86t-84 -219q0 -132 86 -215.5t221 -83.5q134 0 219.5 84.5t85.5 216.5q0 131 -89 217t-224 86zM641 1427
l193 -309h-112l-179 177l-171 -177h-108l187 309h190z" />
    <glyph glyph-name="odieresis" unicode="&#xf6;" horiz-adv-x="1130" 
d="M569 922q210 0 349 -135.5t139 -340.5q0 -199 -141 -330.5t-355 -131.5q-207 0 -346 133.5t-139 333.5q0 202 140.5 336.5t352.5 134.5zM559 758q-131 0 -215 -86t-84 -219q0 -132 86 -215.5t221 -83.5q134 0 219.5 84.5t85.5 216.5q0 131 -89 217t-224 86zM344 1366
q39 0 67.5 -28t28.5 -68t-27 -67.5t-66 -27.5q-40 0 -68 28.5t-28 67.5q0 40 27.5 67.5t65.5 27.5zM729 1366q39 0 67.5 -28t28.5 -68t-27 -67.5t-66 -27.5q-40 0 -68 28.5t-28 67.5q0 40 27.5 67.5t65.5 27.5z" />
    <glyph glyph-name="otilde" unicode="&#xf5;" horiz-adv-x="1130" 
d="M569 922q210 0 349 -135.5t139 -340.5q0 -199 -141 -330.5t-355 -131.5q-207 0 -346 133.5t-139 333.5q0 202 140.5 336.5t352.5 134.5zM559 758q-131 0 -215 -86t-84 -219q0 -132 86 -215.5t221 -83.5q134 0 219.5 84.5t85.5 216.5q0 131 -89 217t-224 86zM888 1397
q-1 -121 -56 -189q-42 -53 -105 -53q-55 0 -148 40t-140 40q-26 0 -45 -20t-23 -60h-84q16 141 58 188.5t106 47.5q58 0 189 -53q67 -27 96 -27q28 0 47.5 19.5t26.5 66.5h78z" />
    <glyph glyph-name="uacute" unicode="&#xfa;" 
d="M715 0v117q-58 -63 -132.5 -98t-148.5 -35q-87 0 -160.5 43.5t-111 118t-37.5 247.5v527h182v-525q0 -145 41.5 -202.5t145.5 -57.5q130 0 221 127v658h182v-920h-182zM736 1419l-226 -300h-112l135 300h203z" />
    <glyph glyph-name="ugrave" unicode="&#xf9;" 
d="M715 0v117q-58 -63 -132.5 -98t-148.5 -35q-87 0 -160.5 43.5t-111 118t-37.5 247.5v527h182v-525q0 -145 41.5 -202.5t145.5 -57.5q130 0 221 127v658h182v-920h-182zM497 1419l138 -300h-112l-230 300h204z" />
    <glyph glyph-name="ucircumflex" unicode="&#xfb;" 
d="M715 0v117q-58 -63 -132.5 -98t-148.5 -35q-87 0 -160.5 43.5t-111 118t-37.5 247.5v527h182v-525q0 -145 41.5 -202.5t145.5 -57.5q130 0 221 127v658h182v-920h-182zM603 1427l193 -309h-112l-179 177l-171 -177h-108l187 309h190z" />
    <glyph glyph-name="udieresis" unicode="&#xfc;" 
d="M715 0v117q-58 -63 -132.5 -98t-148.5 -35q-87 0 -160.5 43.5t-111 118t-37.5 247.5v527h182v-525q0 -145 41.5 -202.5t145.5 -57.5q130 0 221 127v658h182v-920h-182zM318 1366q39 0 67.5 -28t28.5 -68t-27 -67.5t-66 -27.5q-40 0 -68 28.5t-28 67.5q0 40 27.5 67.5
t65.5 27.5zM703 1366q39 0 67.5 -28t28.5 -68t-27 -67.5t-66 -27.5q-40 0 -68 28.5t-28 67.5q0 40 27.5 67.5t65.5 27.5z" />
    <glyph glyph-name="dagger" unicode="&#x2020;" horiz-adv-x="1004" 
d="M506 1415q96 0 96 -184q0 -104 -33 -250l-28 -133q137 53 264 53q63 0 103 -26.5t40 -67.5q0 -39 -39 -64.5t-98 -25.5q-82 0 -270 53l8 -106l10 -117l13 -152q31 -339 31 -541q0 -180 -24.5 -251.5t-80.5 -71.5q-60 0 -83.5 67.5t-23.5 239.5q0 96 24.5 419t33.5 402
l12 111q-5 -1 -25 -7q-140 -46 -237 -46q-66 0 -105 24t-39 64q0 44 38 70t104 26q134 0 264 -53l-25 125q-33 176 -33 254q0 89 27.5 138.5t75.5 49.5z" />
    <glyph glyph-name="degree" unicode="&#xb0;" horiz-adv-x="811" 
d="M127 1214q0 114 82 195.5t197 81.5q114 0 195 -81.5t81 -195.5q0 -115 -81 -196.5t-195 -81.5q-115 0 -197 81.5t-82 196.5zM236 1214q0 -70 50 -120t120 -50q69 0 118 50t49 120t-48.5 119t-118.5 49q-71 0 -120.5 -49t-49.5 -119z" />
    <glyph glyph-name="cent" unicode="&#xa2;" horiz-adv-x="897" 
d="M739 1270h95l-129 -359q20 -8 24 -8q42 -15 68 -31v-192q-63 51 -150 74l-209 -576q73 -26 129 -26q64 0 134.5 17.5t115.5 45.5v-176q-145 -57 -278 -57q-88 0 -162 18l-141 -387h-97l158 426q-102 57 -160.5 166t-58.5 241q0 224 125.5 358t335.5 134q25 0 79 -6z
M362 223l197 545h-18q-124 0 -201.5 -87.5t-77.5 -227.5q0 -141 100 -230z" />
    <glyph glyph-name="sterling" unicode="&#xa3;" horiz-adv-x="1087" 
d="M694 -8l-108 16q-72 10 -148 10q-166 0 -317 -34l162 602h-148v178h195q52 193 135 352.5t179.5 229t201.5 69.5q27 0 74 -8l114 -213q-58 31 -145 31q-110 0 -192.5 -96t-149.5 -302l-21 -63h156v-178h-209l-102 -387q30 4 78 4q110 0 182 -13l80 -14q37 -8 98 -8
q133 0 207 45v-195q-107 -34 -205 -34q-65 0 -117 8z" />
    <glyph glyph-name="section" unicode="&#xa7;" horiz-adv-x="831" 
d="M145 1098q0 136 88 226.5t220 90.5q107 0 175 -48.5t68 -125.5q0 -49 -30 -81t-76 -32q-35 0 -58.5 24.5t-23.5 61.5v11q2 8 2 16q0 43 -64 43q-63 0 -100 -37.5t-37 -101.5q0 -129 180 -299l95 -88q66 -61 124 -163.5t58 -211.5q0 -90 -35 -162.5t-117 -154.5
q72 -99 72 -224q0 -130 -91.5 -220.5t-223.5 -90.5q-105 0 -173.5 51.5t-68.5 130.5q0 52 33 89.5t80 37.5q43 0 70.5 -27.5t27.5 -70.5q0 -17 -4 -34q-2 -8 -2 -11q0 -14 14 -24.5t33 -10.5q60 0 103.5 44t43.5 104q0 63 -45 133t-168 202q-111 111 -155 175.5t-69 142.5
t-25 153q0 162 135 285q-56 96 -56 197zM434 643l-147 143q-64 -74 -64 -151q0 -41 17.5 -89.5t49 -94t140.5 -160.5l100 -107q34 35 55 83t21 89t-12.5 79.5t-36.5 73.5t-123 134z" />
    <glyph glyph-name="bullet" unicode="&#x2022;" horiz-adv-x="725" 
d="M109 698q0 105 74.5 179.5t178.5 74.5q106 0 180 -74t74 -180q0 -105 -74.5 -179.5t-179.5 -74.5q-104 0 -178.5 75t-74.5 179z" />
    <glyph glyph-name="paragraph" unicode="&#xb6;" horiz-adv-x="1110" 
d="M569 -406h-163v1043q-186 11 -295 121.5t-109 290.5q0 189 121 303q52 49 133 81.5t217 32.5h633v-174h-143v-1698h-170v1698h-224v-1698z" />
    <glyph glyph-name="germandbls" unicode="&#xdf;" 
d="M473 846h27q103 0 160 56t57 157q0 94 -59.5 154.5t-151.5 60.5q-106 0 -154.5 -65t-48.5 -208v-1001h-182v999q0 124 40 222.5t128.5 146t220.5 47.5q180 0 283.5 -89.5t103.5 -244.5q0 -107 -53 -189t-148 -122q124 -32 192 -128.5t68 -240.5q0 -184 -100 -299.5
t-258 -115.5q-76 0 -141 14v178q50 -22 100 -22q98 0 156.5 70t58.5 188q0 79 -29.5 137.5t-87 92t-182.5 36.5v166z" />
    <glyph glyph-name="registered" unicode="&#xae;" horiz-adv-x="1516" 
d="M587 258h-131v811h281q149 0 210.5 -23.5t98.5 -78.5t37 -117q0 -93 -65 -157t-167 -72q46 -19 86.5 -62.5t102.5 -142.5l98 -158h-160l-71 127q-77 137 -122 177.5t-120 40.5h-78v-345zM587 959v-244h160q102 0 149 29.5t47 93.5q0 67 -45.5 94t-160.5 27h-150z
M758 1417q202 0 377 -101.5t276.5 -276t101.5 -376.5q0 -203 -101 -377t-276 -275t-378 -101q-204 0 -379 100.5t-276 275t-101 377.5t101.5 377.5t276.5 275.5t378 101zM758 1292q-260 0 -444.5 -184.5t-184.5 -444.5q0 -261 184 -444.5t445 -183.5q260 0 444 184t184 444
t-184.5 444.5t-443.5 184.5z" />
    <glyph glyph-name="copyright" unicode="&#xa9;" horiz-adv-x="1516" 
d="M1108 850l-119 -29q-61 154 -227 154q-120 0 -191 -86.5t-71 -231.5q0 -144 67.5 -226.5t184.5 -82.5q91 0 157.5 51.5t89.5 140.5l123 -36q-31 -128 -128 -201.5t-236 -73.5q-180 0 -288 118t-108 314q0 197 108.5 310.5t295.5 113.5q131 0 219.5 -61t122.5 -174z
M758 1417q202 0 377 -101.5t276.5 -276t101.5 -376.5q0 -203 -101 -377t-276 -275t-378 -101q-204 0 -379 100.5t-276 275t-101 377.5t101.5 377.5t276.5 275.5t378 101zM758 1292q-260 0 -444.5 -184.5t-184.5 -444.5q0 -261 184 -444.5t445 -183.5q260 0 444 184t184 444
t-184.5 444.5t-443.5 184.5z" />
    <glyph glyph-name="trademark" unicode="&#x2122;" horiz-adv-x="2048" 
d="M625 582h-136v695h-264v120h666v-120h-266v-695zM1108 582h-125v815h201l205 -651l198 651h197v-815h-125v684l-209 -684h-123l-219 695v-695z" />
    <glyph glyph-name="acute" unicode="&#xb4;" horiz-adv-x="683" 
d="M566 1419l-226 -300h-112l135 300h203z" />
    <glyph glyph-name="dieresis" unicode="&#xa8;" horiz-adv-x="683" 
d="M148 1366q39 0 67.5 -28t28.5 -68t-27 -67.5t-66 -27.5q-40 0 -68 28.5t-28 67.5q0 40 27.5 67.5t65.5 27.5zM533 1366q39 0 67.5 -28t28.5 -68t-27 -67.5t-66 -27.5q-40 0 -68 28.5t-28 67.5q0 40 27.5 67.5t65.5 27.5z" />
    <glyph glyph-name="notequal" unicode="&#x2260;" horiz-adv-x="1195" 
d="M415 417h-301v168h367l109 277h-476v168h542l209 535h125l-209 -535h301v-168h-366l-109 -277h475v-168h-540l-209 -536h-127z" />
    <glyph glyph-name="AE" unicode="&#xc6;" horiz-adv-x="1835" 
d="M831 1397h912v-178h-574v-422h555v-179h-555v-438h596v-178h-796v616h-381l-365 -616h-219zM969 797v465l-277 -465h277z" />
    <glyph glyph-name="Oslash" unicode="&#xd8;" horiz-adv-x="1686" 
d="M1374 1419l94 -82l-94 -114q104 -95 161.5 -232t57.5 -289q0 -309 -213.5 -512.5t-537.5 -203.5q-263 0 -432 114l-101 -118l-96 77l96 119q-102 93 -158.5 228.5t-56.5 285.5q0 314 212.5 518.5t537.5 204.5q228 0 432 -117zM1239 1071l-700 -819q144 -82 303 -82
q236 0 390 151.5t154 383.5q0 103 -39 200t-108 166zM442 328l703 821q-141 82 -299 82q-235 0 -390 -151t-155 -380q0 -211 141 -372z" />
    <glyph glyph-name="infinity" unicode="&#x221e;" horiz-adv-x="1460" 
d="M689 812q105 132 164 174q80 58 169 58q105 0 196.5 -76t91.5 -245q0 -118 -34 -185.5t-106 -108.5t-148 -41q-89 0 -169 57q-59 43 -164 175q-136 -171 -289 -171q-101 0 -173.5 76.5t-72.5 190.5q0 113 72.5 190t173.5 77q153 0 289 -171zM758 717q87 -135 159 -185
q46 -33 103 -33q76 0 127.5 56t51.5 158q0 106 -52.5 162t-130.5 56q-49 0 -92 -28q-58 -39 -166 -186zM620 716q-80 100 -128 128.5t-92 28.5q-58 0 -96.5 -41t-38.5 -113q0 -71 40 -113.5t97 -42.5q101 0 218 153z" />
    <glyph glyph-name="plusminus" unicode="&#xb1;" horiz-adv-x="1196" 
d="M513 260v403h-399v167h399v399h170v-399h399v-167h-399v-403h-170zM1082 0h-968v168h968v-168z" />
    <glyph glyph-name="lessequal" unicode="&#x2264;" horiz-adv-x="1195" 
d="M114 762v168l968 410v-180l-768 -315l768 -319v-179zM1082 106h-968v167h968v-167z" />
    <glyph glyph-name="greaterequal" unicode="&#x2265;" horiz-adv-x="1195" 
d="M1082 762l-968 -415v179l768 319l-768 315v180l968 -410v-168zM1082 106h-968v167h968v-167z" />
    <glyph glyph-name="yen" unicode="&#xa5;" horiz-adv-x="1130" 
d="M659 0h-182v326h-416v137h416v143h-416v150h342l-403 710h199l288 -516q50 -86 76 -153q19 42 82 161l275 508h213l-404 -710h340v-150h-410v-143h410v-137h-410v-326z" />
    <glyph glyph-name="mu1" unicode="&#xb5;" horiz-adv-x="1130" 
d="M793 0v109q-46 -71 -97 -100t-129 -29q-71 0 -118.5 24.5t-96.5 87.5v-442h-174v1270h174v-447q0 -146 20.5 -209.5t70.5 -104t116 -40.5q68 0 122 38t75.5 99.5t21.5 212.5v451h174v-920h-159z" />
    <glyph glyph-name="partialdiff" unicode="&#x2202;" horiz-adv-x="1012" 
d="M422 1138l-135 60q70 157 168 225t192 68q76 0 137.5 -39.5t92.5 -90.5q47 -79 69.5 -187t22.5 -248q0 -288 -86.5 -512.5t-233.5 -331.5t-289 -107q-137 0 -222.5 91t-85.5 256q0 226 153 387q197 207 649 215q-4 168 -24 256t-68 135.5t-113 47.5q-62 0 -121 -49.5
t-106 -175.5zM850 796q-244 -14 -357.5 -68t-187 -176.5t-73.5 -248.5q0 -83 51 -137t119 -54q75 0 160 55q117 76 190.5 234.5t97.5 394.5z" />
    <glyph glyph-name="summation" unicode="&#x2211;" horiz-adv-x="1460" 
d="M139 1491h1237v-164h-988l607 -775l-649 -822h1040v-161h-1264v187l620 788l-603 772v175z" />
    <glyph glyph-name="product" unicode="&#x220f;" horiz-adv-x="1686" 
d="M161 1491h1362v-1922h-191v1748h-978v-1748h-193v1922z" />
    <glyph glyph-name="pi1" unicode="&#x3c0;" horiz-adv-x="1124" 
d="M0 1063h1124v-158h-162v-905h-189v905h-426v-905h-188v905h-159v158z" />
    <glyph glyph-name="integral" unicode="&#x222b;" horiz-adv-x="561" 
d="M602 1760q0 -39 -29.5 -64t-75.5 -25q-37 0 -60 25t-44 25q-18 0 -27.5 -14.5t-9.5 -43.5q0 -34 19.5 -256t19.5 -551q0 -505 -30 -709.5t-79 -282.5q-26 -41 -67.5 -62t-85.5 -21q-49 0 -86 35t-37 85q0 38 25.5 65t64.5 27q34 0 65.5 -33t44.5 -33q25 0 39.5 44.5
t14.5 153.5q0 37 -6 197t-6 562q0 481 17 638.5t41 215.5q29 70 69 104t84 34q57 0 98 -32.5t41 -83.5z" />
    <glyph glyph-name="ordfeminine" unicode="&#xaa;" horiz-adv-x="575" 
d="M473 1182v-207q0 -45 10 -45q16 0 76 41v-86q-77 -47 -127 -47q-76 0 -94 47q-73 -47 -154 -47q-65 0 -109 41t-44 102q0 108 164 160l139 45v24q0 90 -92 90q-52 0 -97 -23.5t-104 -82.5v141q73 80 207 80q120 0 172.5 -54.5t52.5 -178.5zM334 965v147l-64 -22
q-54 -20 -76 -41t-22 -52q0 -69 72 -69q43 0 90 37z" />
    <glyph glyph-name="ordmasculine" unicode="&#xba;" horiz-adv-x="748" 
d="M360 1415q151 0 245.5 -79.5t94.5 -205.5q0 -120 -94 -200t-235 -80q-138 0 -231 81.5t-93 203.5t88 201t225 79zM371 1307q-78 0 -129.5 -50.5t-51.5 -126.5q0 -73 51.5 -119t133.5 -46q81 0 132.5 47.5t51.5 122.5t-53.5 123.5t-134.5 48.5z" />
    <glyph glyph-name="Ohm" unicode="&#x2126;" horiz-adv-x="1573" 
d="M496 160q-108 67 -165 130q-87 96 -134 225.5t-47 286.5q0 196 79.5 360.5t231 252.5t347.5 88q336 0 516 -254q131 -186 131 -448q0 -168 -54 -297.5t-141 -222.5q-53 -58 -149 -121l364 6v-166h-575v177q80 40 124 78q72 61 122 145t75.5 179t25.5 198
q0 138 -49.5 277.5t-150 212.5t-243.5 73q-191 0 -296 -120q-146 -169 -146 -440q0 -217 91 -372.5t251 -227.5v-180h-577v168z" />
    <glyph glyph-name="ae" unicode="&#xe6;" horiz-adv-x="1366" 
d="M936 938q158 0 254 -112.5t96 -297.5v-28h-567q5 -135 43.5 -207.5t100.5 -109t143 -36.5q131 0 280 111v-178q-83 -55 -149.5 -75.5t-163.5 -20.5q-95 0 -181.5 39.5t-127.5 101.5q-179 -141 -345 -141q-110 0 -178.5 64.5t-68.5 168.5q0 77 47 138t144.5 103.5
t146.5 53.5l127 39v29q0 103 -34.5 145.5t-117.5 42.5q-157 0 -293 -152v220q77 56 144 79t151 23q181 0 277 -119q76 65 137.5 92t134.5 27zM741 616h363q-11 78 -56.5 121t-117.5 43q-137 0 -189 -164zM537 162v297l-99 -39q-100 -39 -143 -78t-43 -90q0 -60 38.5 -101.5
t92.5 -41.5q37 0 66 10.5t88 42.5z" />
    <glyph glyph-name="oslash" unicode="&#xf8;" horiz-adv-x="1130" 
d="M848 856l94 113l68 -62l-90 -106q139 -155 139 -346q0 -206 -142.5 -338.5t-363.5 -132.5q-146 0 -270 73l-115 -131l-68 62l111 127q-139 142 -139 344q0 205 140.5 342t352.5 137q154 0 283 -82zM805 670l-410 -480q72 -49 168 -49q135 0 227.5 91.5t92.5 224.5
q0 64 -17 110t-61 103zM326 248l407 477q-83 49 -168 49q-135 0 -226 -92t-91 -229q0 -117 78 -205z" />
    <glyph glyph-name="questiondown" unicode="&#xbf;" horiz-adv-x="682" 
d="M594 -172l-133 -217q-156 3 -242 87t-86 210q0 80 32.5 169t144.5 260q132 203 132 288q0 11 -6 43q68 -32 96.5 -76.5t28.5 -116.5q0 -70 -23.5 -125t-112.5 -197q-85 -136 -85 -221q0 -63 37.5 -100t101.5 -37q48 0 115 33zM287 922q0 50 36.5 85t88.5 35t87.5 -34.5
t35.5 -85.5q0 -52 -36 -87.5t-87 -35.5q-53 0 -89 35.5t-36 87.5z" />
    <glyph glyph-name="exclamdown" unicode="&#xa1;" horiz-adv-x="555" 
d="M152 924q0 50 37 86.5t87 36.5q53 0 89 -35.5t36 -87.5q0 -54 -35 -90.5t-87 -36.5q-54 0 -90.5 36.5t-36.5 90.5zM207 379l14 74q20 104 30.5 136t22.5 32q16 0 25 -33q0 -6 16 -53q22 -65 48 -275t26 -358q0 -293 -113 -293q-114 0 -114 287q0 248 45 483z" />
    <glyph glyph-name="logicalnot" unicode="&#xac;" horiz-adv-x="1196" 
d="M1081 257h-170v438h-798v168h968v-606z" />
    <glyph glyph-name="radical" unicode="&#x221a;" horiz-adv-x="1124" 
d="M1055 1868l-307 -1946l-498 1028l-197 -96l-33 68l299 147l404 -825l260 1634z" />
    <glyph glyph-name="florin" unicode="&#x192;" horiz-adv-x="1130" 
d="M721 922l-191 -1090q-24 -140 -84 -200t-176 -60q-102 0 -223 25l35 155q99 -22 151 -22q59 0 85.5 32t41.5 121l179 1039h-201l22 139h203l25 135q23 145 71 209q76 90 218 90q40 0 118 -20l72 -17l18 -4l-34 -154q-108 25 -154 25q-63 0 -88.5 -31.5t-42.5 -128.5
l-18 -104h202l-24 -139h-205z" />
    <glyph glyph-name="approxequal" unicode="&#x2248;" horiz-adv-x="1194" 
d="M348 874q-69 0 -125 -28.5t-137 -106.5v204q109 121 279 121q115 0 274 -69l80 -35q62 -29 133 -29q132 0 258 135v-211q-122 -114 -276 -114q-105 0 -246 61l-62 27q-104 45 -178 45zM348 512q-69 0 -125 -28.5t-137 -106.5v204q109 121 279 121q115 0 274 -69l80 -35
q62 -29 133 -29q132 0 258 135v-211q-122 -114 -276 -114q-105 0 -246 61l-62 27q-104 45 -178 45z" />
    <glyph glyph-name="increment" unicode="&#x2206;" horiz-adv-x="1253" 
d="M668 1409l577 -1409h-1233zM594 1059l-447 -959h844z" />
    <glyph glyph-name="guillemotleft" unicode="&#xab;" horiz-adv-x="1004" 
d="M653 461l303 -461h-180l-301 461l301 459h180zM238 461l303 -461h-181l-303 461l303 459h181z" />
    <glyph glyph-name="guillemotright" unicode="&#xbb;" horiz-adv-x="1004" 
d="M350 459l-303 461h178l303 -461l-303 -459h-178zM766 459l-303 461h178l303 -461l-303 -459h-178z" />
    <glyph glyph-name="ellipsis" unicode="&#x2026;" horiz-adv-x="2048" 
d="M1708 227q51 0 86 -36t35 -87q0 -50 -35 -85t-86 -35q-52 0 -87.5 34.5t-35.5 85.5q0 52 35.5 87.5t87.5 35.5zM1024 227q51 0 87 -36t36 -87q0 -50 -36 -85t-87 -35t-86 35t-35 85q0 51 35 87t86 36zM340 225q51 0 87 -37t36 -88q0 -50 -35.5 -84t-87.5 -34
q-51 0 -86 34t-35 84q0 52 35.5 88.5t85.5 36.5z" />
    <glyph glyph-name="nbspace" unicode="&#xa0;" horiz-adv-x="569" 
 />
    <glyph glyph-name="Agrave" unicode="&#xc0;" horiz-adv-x="1366" 
d="M600 1405h141l625 -1405h-205l-186 414h-594l-176 -414h-205zM893 592l-225 506l-209 -506h434zM637 1800l138 -300h-112l-230 300h204z" />
    <glyph glyph-name="Atilde" unicode="&#xc3;" horiz-adv-x="1366" 
d="M600 1405h141l625 -1405h-205l-186 414h-594l-176 -414h-205zM893 592l-225 506l-209 -506h434zM964 1777q-1 -121 -56 -189q-42 -53 -105 -53q-55 0 -148 40t-140 40q-26 0 -45 -20t-23 -60h-84q16 141 58 188.5t106 47.5q58 0 189 -53q67 -27 96 -27q28 0 47.5 19.5
t26.5 66.5h78z" />
    <glyph glyph-name="Otilde" unicode="&#xd5;" horiz-adv-x="1686" 
d="M840 1417q324 0 539.5 -205t215.5 -514t-217.5 -511.5t-548.5 -202.5q-316 0 -526.5 202.5t-210.5 507.5q0 313 212 518t536 205zM848 1227q-240 0 -394.5 -150t-154.5 -383q0 -226 155 -376t388 -150q234 0 390.5 153t156.5 381q0 222 -156.5 373.5t-384.5 151.5z
M1148 1777q-1 -121 -56 -189q-42 -53 -105 -53q-55 0 -148 40t-140 40q-26 0 -45 -20t-23 -60h-84q16 141 58 188.5t106 47.5q58 0 189 -53q67 -27 96 -27q28 0 47.5 19.5t26.5 66.5h78z" />
    <glyph glyph-name="OE" unicode="&#x152;" horiz-adv-x="1878" 
d="M887 1397h905v-178h-571v-422h551v-179h-551v-438h594v-178h-861q-230 0 -373.5 47t-259.5 147q-225 194 -225 496q0 315 219 510t572 195zM881 174h139v1049h-78q-232 0 -362 -71t-201.5 -191t-71.5 -263q0 -224 164 -374t410 -150z" />
    <glyph glyph-name="oe" unicode="&#x153;" horiz-adv-x="1706" 
d="M1278 938q150 0 248 -105q49 -53 75.5 -126t32.5 -207h-577v-23q0 -163 81 -245t205 -82q143 0 291 114v-184q-87 -54 -156.5 -74t-174.5 -20q-234 0 -342 178q-147 -180 -402 -180q-207 0 -347 136.5t-140 338.5q0 205 143 342t358 137q242 0 388 -190q55 91 138 140.5
t179 49.5zM1075 618h377q-35 162 -180 162q-71 0 -122.5 -42.5t-74.5 -119.5zM567 760q-132 0 -218.5 -87t-86.5 -220q0 -127 87.5 -211t219.5 -84t215.5 84t83.5 217q0 130 -85.5 215.5t-215.5 85.5z" />
    <glyph glyph-name="endash" unicode="&#x2013;" 
d="M-16 584h1058v-131h-1058v131z" />
    <glyph glyph-name="emdash" unicode="&#x2014;" horiz-adv-x="2048" 
d="M-16 584h2082v-131h-2082v131z" />
    <glyph glyph-name="quotedblleft" unicode="&#x201c;" horiz-adv-x="874" 
d="M764 1415v-41q-36 -24 -58 -71.5t-22 -100.5q0 -26 4 -49q47 -3 75 -34.5t28 -80.5q0 -50 -34.5 -84t-86.5 -34q-65 0 -105.5 53t-40.5 137q0 67 28.5 130t76.5 102.5t135 72.5zM227 1153h9q37 0 65.5 -35t28.5 -80q0 -50 -33 -84t-82 -34q-63 0 -105 56t-42 140
q0 106 62.5 185.5t172.5 113.5v-43q-80 -64 -80 -168z" />
    <glyph glyph-name="quotedblright" unicode="&#x201d;" horiz-adv-x="874" 
d="M651 1145v26q-106 14 -106 121q0 54 33.5 88.5t85.5 34.5q64 0 103.5 -52t39.5 -138q0 -109 -63.5 -191t-172.5 -114v38q80 70 80 187zM190 1147v22q-47 5 -74.5 36t-27.5 79q0 60 33 95.5t88 35.5q63 0 102 -53.5t39 -140.5q0 -219 -239 -301v38q79 62 79 189z" />
    <glyph glyph-name="quoteleft" unicode="&#x2018;" horiz-adv-x="449" 
d="M350 1415v-31q-86 -95 -86 -198q0 -13 2 -23q107 -34 107 -125q0 -50 -36.5 -84t-88.5 -34q-63 0 -100 50.5t-37 135.5q0 231 239 309z" />
    <glyph glyph-name="quoteright" unicode="&#x2019;" horiz-adv-x="449" 
d="M100 907v39q45 44 63 87t21 118q-106 34 -106 131q0 55 36.5 94t86.5 39q61 0 100 -54t39 -138q0 -112 -64 -196.5t-176 -119.5z" />
    <glyph glyph-name="divide" unicode="&#xf7;" horiz-adv-x="1196" 
d="M604 1131q45 0 76.5 -31.5t31.5 -76.5t-31.5 -77t-76.5 -32t-77 32t-32 77t31.5 76.5t77.5 31.5zM1082 639h-968v168h968v-168zM605 529q45 0 76.5 -32t31.5 -77t-31.5 -77t-76.5 -32t-77 32t-32 77t31.5 77t77.5 32z" />
    <glyph glyph-name="lozenge" unicode="&#x25ca;" horiz-adv-x="1012" 
d="M962 763l-397 -763h-122l-397 763l397 763h122zM839 763l-335 652l-335 -652l335 -652z" />
    <glyph glyph-name="ydieresis" unicode="&#xff;" horiz-adv-x="897" 
d="M692 920h205l-651 -1389h-203l313 666l-356 723h207l248 -519zM254 1366q39 0 67.5 -28t28.5 -68t-27 -67.5t-66 -27.5q-40 0 -68 28.5t-28 67.5q0 40 27.5 67.5t65.5 27.5zM639 1366q39 0 67.5 -28t28.5 -68t-27 -67.5t-66 -27.5q-40 0 -68 28.5t-28 67.5
q0 40 27.5 67.5t65.5 27.5z" />
    <glyph glyph-name="Ydieresis" unicode="&#x178;" horiz-adv-x="1237" 
d="M995 1397h242l-516 -658v-739h-205v739l-516 658h242l374 -482zM400 1706q39 0 67.5 -28t28.5 -68t-27 -67.5t-66 -27.5q-40 0 -68 28.5t-28 67.5q0 40 27.5 67.5t65.5 27.5zM785 1706q39 0 67.5 -28t28.5 -68t-27 -67.5t-66 -27.5q-40 0 -68 28.5t-28 67.5
q0 40 27.5 67.5t65.5 27.5z" />
    <glyph glyph-name="fraction" unicode="&#x2215;" horiz-adv-x="406" 
d="M598 1415h139l-930 -1468h-137z" />
    <glyph glyph-name="Euro" unicode="&#x20ac;" horiz-adv-x="1249" 
d="M426 909h594l-29 -155h-590q-2 -23 -2 -50q0 -28 2 -61h570l-29 -156h-516q91 -321 377 -321q181 0 346 137v-219q-144 -102 -352 -102q-230 0 -379 134t-199 371h-162l29 156h115q0 74 2 111h-146l27 155h141q61 235 215.5 370.5t366.5 135.5q159 0 350 -67l-39 -191
q-174 74 -317 74q-280 0 -375 -322z" />
    <glyph glyph-name="guilsinglleft" unicode="&#x2039;" horiz-adv-x="641" 
d="M252 461l303 -461h-180l-301 461l301 459h180z" />
    <glyph glyph-name="guilsinglright" unicode="&#x203a;" horiz-adv-x="641" 
d="M389 459l-303 461h178l303 -461l-303 -459h-178z" />
    <glyph glyph-name="fi" unicode="&#xfb01;" 
d="M346 922h205v-156h-205v-766h-182v766h-137v156h137v30q0 223 101 343t288 120q153 0 242 -78t92 -215h-172q-27 73 -66 104t-102 31q-203 0 -203 -301q0 -16 2 -34zM715 922h172v-922h-172v922z" />
    <glyph glyph-name="fl" unicode="&#xfb02;" 
d="M338 922h209v-156h-209v-766h-178v766h-142v156h142v45q0 150 34 237t113 149t191 62q64 0 123 -18v-166q-52 14 -82 14q-110 0 -155.5 -63.5t-45.5 -218.5v-41zM713 1397h182v-1397h-182v1397z" />
    <glyph glyph-name="daggerdbl" unicode="&#x2021;" horiz-adv-x="1004" 
d="M55 854q0 44 40 71t106 27q101 0 262 -51l-37 168q-23 102 -23 186q0 71 28 115.5t73 44.5t71.5 -46t26.5 -124q0 -101 -47 -287l-14 -57q173 51 270 51q59 0 97 -26t38 -66q0 -41 -39.5 -66.5t-101.5 -25.5q-106 0 -264 53q0 -70 23 -227q11 -78 11 -125q0 -24 -10 -102
l-18 -125q-6 -39 -6 -115q153 51 274 51q57 0 95 -26t38 -64q0 -43 -36 -66.5t-101 -23.5q-122 0 -270 53q61 -223 61 -352q0 -76 -29 -122t-77 -46q-42 0 -67.5 46.5t-25.5 121.5q0 123 60 352q-168 -55 -275 -55q-62 0 -97.5 24.5t-35.5 67.5q0 39 40 65.5t98 26.5
q92 0 270 -53l-10 119l-15 116q-8 82 -8 111q0 43 13 121q20 123 20 211v16l-33 -8q-179 -45 -240 -45q-59 0 -97 24.5t-38 61.5z" />
    <glyph glyph-name="periodcentered" unicode="&#x2219;" horiz-adv-x="532" 
d="M266 819q46 0 78.5 -33t32.5 -79t-32.5 -78.5t-78.5 -32.5q-45 0 -77.5 33t-32.5 78q0 46 32.5 79t77.5 33z" />
    <glyph glyph-name="quotesinglbase" unicode="&#x201a;" horiz-adv-x="449" 
d="M100 -242v37q45 43 63 86.5t21 118.5q-106 31 -106 131q0 54 36.5 93.5t86.5 39.5q61 0 100 -54t39 -138q0 -111 -64 -195t-176 -119z" />
    <glyph glyph-name="quotedblbase" unicode="&#x201e;" horiz-adv-x="918" 
d="M588 -236v37q80 90 80 199q0 10 -2 23q-49 6 -77 38t-28 82q0 54 33.5 88.5t85.5 34.5q64 0 103.5 -53.5t39.5 -140.5q0 -108 -64 -192t-171 -116zM125 -238v41q84 86 84 193q0 2 -1 8q-1 9 -1 16q-48 5 -76.5 36.5t-28.5 78.5q0 60 33 96.5t88 36.5q64 0 103 -55
t39 -145q0 -64 -26.5 -123.5t-75.5 -105t-138 -77.5z" />
    <glyph glyph-name="perthousand" unicode="&#x2030;" horiz-adv-x="2068" 
d="M1047 1417h153l-919 -1433h-156zM995 608q129 0 221.5 -91t92.5 -220q0 -128 -92 -217.5t-222 -89.5t-220.5 89.5t-90.5 217.5q0 129 91 220t220 91zM995 457q-66 0 -112.5 -47t-46.5 -113q0 -67 46.5 -114.5t112.5 -47.5q68 0 115 47t47 115q0 66 -47.5 113t-114.5 47z
M338 1413q129 0 220 -92t91 -221q0 -128 -91.5 -220t-219.5 -92t-219.5 92t-91.5 220q0 129 91 221t220 92zM336 1262q-67 0 -114.5 -47t-47.5 -115q0 -66 47.5 -113t114.5 -47q66 0 114 47t48 113q0 67 -47.5 114.5t-114.5 47.5zM1733 608q129 0 220 -91t91 -220
q0 -128 -90.5 -217.5t-220.5 -89.5t-221 89.5t-91 217.5q0 129 91.5 220t220.5 91zM1733 457q-67 0 -113.5 -46.5t-46.5 -113.5q0 -68 46 -115t114 -47q66 0 112.5 47.5t46.5 114.5q0 66 -46.5 113t-112.5 47z" />
    <glyph glyph-name="Acircumflex" unicode="&#xc2;" horiz-adv-x="1366" 
d="M600 1405h141l625 -1405h-205l-186 414h-594l-176 -414h-205zM893 592l-225 506l-209 -506h434zM775 1809l193 -309h-112l-179 177l-171 -177h-108l187 309h190z" />
    <glyph glyph-name="Ecircumflex" unicode="&#xca;" 
d="M154 1397h792v-178h-592v-426h572v-179h-572v-434h611v-178h-811v1395zM643 1809l193 -309h-112l-179 177l-171 -177h-108l187 309h190z" />
    <glyph glyph-name="Aacute" unicode="&#xc1;" horiz-adv-x="1366" 
d="M600 1405h141l625 -1405h-205l-186 414h-594l-176 -414h-205zM893 592l-225 506l-209 -506h434zM908 1800l-226 -300h-112l135 300h203z" />
    <glyph glyph-name="Edieresis" unicode="&#xcb;" 
d="M154 1397h792v-178h-592v-426h572v-179h-572v-434h611v-178h-811v1395zM318 1706q39 0 67.5 -28t28.5 -68t-27 -67.5t-66 -27.5q-40 0 -68 28.5t-28 67.5q0 40 27.5 67.5t65.5 27.5zM703 1706q39 0 67.5 -28t28.5 -68t-27 -67.5t-66 -27.5q-40 0 -68 28.5t-28 67.5
q0 40 27.5 67.5t65.5 27.5z" />
    <glyph glyph-name="Egrave" unicode="&#xc8;" 
d="M154 1397h792v-178h-592v-426h572v-179h-572v-434h611v-178h-811v1395zM497 1800l138 -300h-112l-230 300h204z" />
    <glyph glyph-name="Iacute" unicode="&#xcd;" horiz-adv-x="512" 
d="M156 1397h200v-1397h-200v1397zM533 1800l-226 -300h-112l135 300h203z" />
    <glyph glyph-name="Icircumflex" unicode="&#xce;" horiz-adv-x="512" 
d="M156 1397h200v-1397h-200v1397zM361 1809l193 -309h-112l-179 177l-171 -177h-108l187 309h190z" />
    <glyph glyph-name="Idieresis" unicode="&#xcf;" horiz-adv-x="512" 
d="M156 1397h200v-1397h-200v1397zM70 1706q39 0 67.5 -28t28.5 -68t-27 -67.5t-66 -27.5q-40 0 -68 28.5t-28 67.5q0 40 27.5 67.5t65.5 27.5zM455 1706q39 0 67.5 -28t28.5 -68t-27 -67.5t-66 -27.5q-40 0 -68 28.5t-28 67.5q0 40 27.5 67.5t65.5 27.5z" />
    <glyph glyph-name="Igrave" unicode="&#xcc;" horiz-adv-x="512" 
d="M156 1397h200v-1397h-200v1397zM206 1800l138 -300h-112l-230 300h204z" />
    <glyph glyph-name="Oacute" unicode="&#xd3;" horiz-adv-x="1686" 
d="M840 1417q324 0 539.5 -205t215.5 -514t-217.5 -511.5t-548.5 -202.5q-316 0 -526.5 202.5t-210.5 507.5q0 313 212 518t536 205zM848 1227q-240 0 -394.5 -150t-154.5 -383q0 -226 155 -376t388 -150q234 0 390.5 153t156.5 381q0 222 -156.5 373.5t-384.5 151.5z
M1043 1800l-226 -300h-112l135 300h203z" />
    <glyph glyph-name="Ocircumflex" unicode="&#xd4;" horiz-adv-x="1686" 
d="M840 1417q324 0 539.5 -205t215.5 -514t-217.5 -511.5t-548.5 -202.5q-316 0 -526.5 202.5t-210.5 507.5q0 313 212 518t536 205zM848 1227q-240 0 -394.5 -150t-154.5 -383q0 -226 155 -376t388 -150q234 0 390.5 153t156.5 381q0 222 -156.5 373.5t-384.5 151.5z
M902 1809l193 -309h-112l-179 177l-171 -177h-108l187 309h190z" />
    <glyph glyph-name="Ograve" unicode="&#xd2;" horiz-adv-x="1686" 
d="M840 1417q324 0 539.5 -205t215.5 -514t-217.5 -511.5t-548.5 -202.5q-316 0 -526.5 202.5t-210.5 507.5q0 313 212 518t536 205zM848 1227q-240 0 -394.5 -150t-154.5 -383q0 -226 155 -376t388 -150q234 0 390.5 153t156.5 381q0 222 -156.5 373.5t-384.5 151.5z
M808 1800l138 -300h-112l-230 300h204z" />
    <glyph glyph-name="Uacute" unicode="&#xda;" horiz-adv-x="1450" 
d="M1126 1397h201v-793q0 -161 -23.5 -243t-58 -136.5t-84.5 -97.5q-166 -143 -434 -143q-273 0 -438 142q-50 44 -84.5 98.5t-57 133.5t-22.5 248v791h201v-793q0 -197 45 -274t137 -123.5t217 -46.5q178 0 290 93q59 50 85 118t26 233v793zM962 1800l-226 -300h-112
l135 300h203z" />
    <glyph glyph-name="Ucircumflex" unicode="&#xdb;" horiz-adv-x="1450" 
d="M1126 1397h201v-793q0 -161 -23.5 -243t-58 -136.5t-84.5 -97.5q-166 -143 -434 -143q-273 0 -438 142q-50 44 -84.5 98.5t-57 133.5t-22.5 248v791h201v-793q0 -197 45 -274t137 -123.5t217 -46.5q178 0 290 93q59 50 85 118t26 233v793zM809 1809l193 -309h-112
l-179 177l-171 -177h-108l187 309h190z" />
    <glyph glyph-name="Ugrave" unicode="&#xd9;" horiz-adv-x="1450" 
d="M1126 1397h201v-793q0 -161 -23.5 -243t-58 -136.5t-84.5 -97.5q-166 -143 -434 -143q-273 0 -438 142q-50 44 -84.5 98.5t-57 133.5t-22.5 248v791h201v-793q0 -197 45 -274t137 -123.5t217 -46.5q178 0 290 93q59 50 85 118t26 233v793zM667 1800l138 -300h-112
l-230 300h204z" />
    <glyph glyph-name="dotlessi" unicode="&#x131;" horiz-adv-x="449" 
d="M133 920h182v-920h-182v920z" />
    <glyph glyph-name="circumflex" unicode="&#x2c6;" horiz-adv-x="683" 
d="M433 1427l193 -309h-112l-179 177l-171 -177h-108l187 309h190z" />
    <glyph glyph-name="tilde" unicode="&#x2dc;" horiz-adv-x="683" 
d="M642 1397q-1 -121 -56 -189q-42 -53 -105 -53q-55 0 -148 40t-140 40q-26 0 -45 -20t-23 -60h-84q16 141 58 188.5t106 47.5q58 0 189 -53q67 -27 96 -27q28 0 47.5 19.5t26.5 66.5h78z" />
    <glyph glyph-name="macron" unicode="&#x2c9;" horiz-adv-x="683" 
d="M680 1339v-149h-677v149h677z" />
    <glyph glyph-name="breve" unicode="&#x2d8;" horiz-adv-x="683" 
d="M631 1397q-24 -132 -99.5 -198t-191.5 -66q-110 0 -188 68.5t-101 195.5h137q16 -65 55 -96t102 -31q58 0 94.5 29.5t52.5 97.5h139z" />
    <glyph glyph-name="dotaccent" unicode="&#x2d9;" horiz-adv-x="683" 
d="M342 1356q51 0 87 -35t36 -86q0 -50 -35.5 -84t-87.5 -34q-51 0 -86 34t-35 84q0 51 35 86t86 35z" />
    <glyph glyph-name="ring" unicode="&#x2da;" horiz-adv-x="683" 
d="M343 1497q77 0 132.5 -55t55.5 -134t-55.5 -135t-134.5 -56q-78 0 -133.5 55.5t-55.5 133.5q0 80 56.5 135.5t134.5 55.5zM338 1416q-51 0 -81.5 -30.5t-30.5 -79.5q0 -48 33.5 -81.5t81.5 -33.5t82 33t34 80t-34 79.5t-85 32.5z" />
    <glyph glyph-name="cedilla" unicode="&#xb8;" horiz-adv-x="683" 
d="M428 16l-15 -49q54 -13 84.5 -50t30.5 -84q0 -76 -61 -129.5t-195 -53.5q-37 0 -65 5v113q51 -4 64 -4q57 0 89 22q19 13 19 34q0 24 -20.5 40t-75.5 16q-11 0 -23 -3l51 143h117z" />
    <glyph glyph-name="hungarumlaut" unicode="&#x2dd;" horiz-adv-x="683" 
d="M353 1422l-239 -300h-111l143 300h207zM680 1422l-237 -300h-113l145 300h205z" />
    <glyph glyph-name="ogonek" unicode="&#x2db;" horiz-adv-x="683" 
d="M545 -196v-137q-71 -31 -138 -31q-102 0 -160.5 54t-58.5 135q0 98 92 194h136q-72 -98 -72 -144q0 -36 29.5 -64.5t67.5 -28.5q27 0 104 22z" />
    <glyph glyph-name="caron" unicode="&#x2c7;" horiz-adv-x="683" 
d="M662 1427l-227 -309h-189l-224 309h114l206 -173l206 173h114z" />
    <glyph glyph-name="Lslash" unicode="&#x141;" horiz-adv-x="1004" 
d="M152 1397h200v-533l283 232v-176l-283 -244v-488h631v-188h-831v512l-181 -145v186l181 149v695z" />
    <glyph glyph-name="lslash" unicode="&#x142;" horiz-adv-x="449" 
d="M135 1397h182v-539l164 129v-162l-164 -133v-692h-182v545l-160 -125v162l160 131v684z" />
    <glyph glyph-name="Scaron" unicode="&#x160;" horiz-adv-x="938" 
d="M500 586l-152 92q-143 87 -203.5 171.5t-60.5 194.5q0 165 114.5 268t297.5 103q175 0 321 -98v-227q-151 145 -325 145q-98 0 -161 -45.5t-63 -116.5q0 -63 46 -118t149 -115l153 -90q256 -152 256 -388q0 -168 -112.5 -273t-292.5 -105q-207 0 -377 127v254
q162 -205 375 -205q94 0 156.5 52.5t62.5 131.5q0 128 -184 242zM791 1809l-227 -309h-189l-224 309h114l206 -173l206 173h114z" />
    <glyph glyph-name="scaron" unicode="&#x161;" horiz-adv-x="788" 
d="M84 66v196q77 -54 157.5 -87.5t135.5 -33.5q57 0 98 28t41 67q0 40 -26.5 66.5t-114.5 76.5q-176 98 -230.5 167.5t-54.5 151.5q0 106 82.5 173t212.5 67q135 0 277 -76v-180q-162 98 -265 98q-53 0 -85.5 -22.5t-32.5 -59.5q0 -32 29.5 -61t103.5 -70l65 -37
q230 -130 230 -288q0 -113 -88.5 -185.5t-227.5 -72.5q-82 0 -146 17.5t-161 64.5zM715 1427l-227 -309h-189l-224 309h114l206 -173l206 173h114z" />
    <glyph glyph-name="Zcaron" unicode="&#x17d;" horiz-adv-x="1323" 
d="M82 1399h1204l-893 -1221h893v-178h-1261l895 1221h-838v178zM981 1809l-227 -309h-189l-224 309h114l206 -173l206 173h114z" />
    <glyph glyph-name="zcaron" unicode="&#x17e;" horiz-adv-x="854" 
d="M43 920h786l-487 -750h487v-170h-806l483 750h-463v170zM748 1427l-227 -309h-189l-224 309h114l206 -173l206 173h114z" />
    <glyph glyph-name="brokenbar" unicode="&#xa6;" horiz-adv-x="532" 
d="M188 701v696h157v-696h-157zM188 -472v832h157v-832h-157z" />
    <glyph glyph-name="sfthyphen" unicode="&#xad;" horiz-adv-x="661" 
d="M580 550v-194h-498v194h498z" />
    <glyph glyph-name="overscore" unicode="&#xaf;" horiz-adv-x="1130" 
d="M-35 1496v132h1200v-132h-1200z" />
    <glyph glyph-name="Eth" unicode="&#xd0;" horiz-adv-x="1536" 
d="M156 2v631h-162v131h162v633h471q285 0 451 -85.5t264 -251.5t98 -362q0 -140 -54 -268t-154 -225q-102 -100 -237 -151q-79 -31 -145 -41.5t-252 -10.5h-442zM752 633h-396v-453h256q150 0 233 20.5t138.5 52t101.5 77.5q148 150 148 379q0 225 -152 367
q-56 53 -128.5 87t-137.5 45t-209 11h-250v-455h396v-131z" />
    <glyph glyph-name="eth" unicode="&#xf0;" horiz-adv-x="1153" 
d="M270 1286l97 127q90 -28 132.5 -45.5t118.5 -58.5l224 104l49 -110l-154 -76q115 -98 167 -172t89 -155q84 -179 84 -376q0 -251 -136 -395.5t-372 -144.5q-207 0 -347 134.5t-140 334.5q0 209 143 347t359 138q64 0 105.5 -9t107.5 -38q-61 103 -99 145.5t-129 112.5
l-295 -137l-47 112l215 101q-85 42 -172 61zM897 463q0 138 -88 224.5t-229 86.5q-136 0 -229 -93t-93 -228q0 -133 92 -219.5t232 -86.5q143 0 229 86.5t86 229.5z" />
    <glyph glyph-name="Yacute" unicode="&#xdd;" horiz-adv-x="1237" 
d="M995 1397h242l-516 -658v-739h-205v739l-516 658h242l374 -482zM842 1800l-226 -300h-112l135 300h203z" />
    <glyph glyph-name="yacute" unicode="&#xfd;" horiz-adv-x="897" 
d="M692 920h205l-651 -1389h-203l313 666l-356 723h207l248 -519zM672 1419l-226 -300h-112l135 300h203z" />
    <glyph glyph-name="Thorn" unicode="&#xde;" horiz-adv-x="1044" 
d="M143 0v1397h201v-301h242q201 0 319.5 -108.5t118.5 -291.5q0 -174 -120 -284q-66 -60 -159 -84.5t-253 -24.5h-148v-303h-201zM551 917h-207v-436h219q122 0 188 57.5t66 163.5q0 215 -266 215z" />
    <glyph glyph-name="thorn" unicode="&#xfe;" 
d="M117 -469v1866h186v-477h133q245 0 381.5 -122t136.5 -341q0 -207 -128.5 -340t-327.5 -133q-88 0 -195 39v-492h-186zM432 750h-129v-566q84 -43 176 -43q128 0 209.5 89t81.5 229q0 90 -38.5 159t-105 100.5t-194.5 31.5z" />
    <glyph glyph-name="multiply" unicode="&#xd7;" horiz-adv-x="1196" 
d="M161 410l315 315l-315 313l122 122l314 -314l314 314l121 -122l-313 -313l313 -315l-121 -121l-314 314l-314 -314z" />
    <glyph glyph-name="onesuperior" unicode="&#xb9;" horiz-adv-x="662" 
d="M260 1407h141v-727h-141v727z" />
    <glyph glyph-name="twosuperior" unicode="&#xb2;" horiz-adv-x="662" 
d="M297 791h307v-111h-547v14l6 6q9 11 37 39q125 128 213 240.5t88 193.5q0 58 -35.5 92.5t-95.5 34.5q-103 0 -194 -118v159q101 74 209 74q113 0 186.5 -64t73.5 -163q0 -39 -16 -84.5t-41 -83.5t-179 -215z" />
    <glyph glyph-name="threesuperior" unicode="&#xb3;" horiz-adv-x="662" 
d="M233 1108h13q153 0 153 102q0 45 -35.5 72t-95.5 27q-59 0 -153 -41v112q77 35 168 35q118 0 187 -53.5t69 -144.5q0 -103 -97 -154q111 -42 111 -170q0 -97 -75.5 -160t-190.5 -63q-94 0 -193 45v129q103 -60 193 -60q55 0 87 28.5t32 76.5q0 52 -34.5 78t-113.5 32
l-25 2v107z" />
    <glyph glyph-name="onehalf" unicode="&#xbd;" horiz-adv-x="1729" 
d="M258 1407h141v-727h-141v727zM1222 1415h139l-930 -1468h-137zM1366 112h307v-111h-547v14l6 6q9 11 37 39q125 128 213 240.5t88 193.5q0 58 -35.5 92.5t-95.5 34.5q-103 0 -194 -118v159q101 74 209 74q113 0 186.5 -64t73.5 -163q0 -39 -16 -84.5t-41 -83.5t-179 -215
z" />
    <glyph glyph-name="onequarter" unicode="&#xbc;" horiz-adv-x="1729" 
d="M258 1407h141v-727h-141v727zM1283 1415h139l-930 -1468h-137zM1520 737h67v-401h92v-100h-92v-236h-139v236h-348v51zM1448 336v172l-160 -172h160z" />
    <glyph glyph-name="threequarters" unicode="&#xbe;" horiz-adv-x="1729" 
d="M231 1108h13q153 0 153 102q0 45 -35.5 72t-95.5 27q-59 0 -153 -41v112q77 35 168 35q118 0 187 -53.5t69 -144.5q0 -103 -97 -154q111 -42 111 -170q0 -97 -75.5 -160t-190.5 -63q-94 0 -193 45v129q103 -60 193 -60q55 0 87 28.5t32 76.5q0 52 -34.5 78t-113.5 32
l-25 2v107zM1259 1415h139l-930 -1468h-137zM1520 737h67v-401h92v-100h-92v-236h-139v236h-348v51zM1448 336v172l-160 -172h160z" />
    <glyph glyph-name="foursuperior" horiz-adv-x="662" 
d="M452 1417h67v-401h92v-100h-92v-236h-139v236h-348v51zM380 1016v172l-160 -172h160z" />
    <glyph glyph-name="middot" unicode="&#xb7;" horiz-adv-x="683" 
d="M741 720q0 -44 -31 -75.5t-76 -31.5t-76.5 32t-31.5 77q0 44 31.5 75.5t76.5 31.5q44 0 75.5 -31.5t31.5 -77.5z" />
    <glyph glyph-name="Abreve" unicode="&#x102;" horiz-adv-x="1366" 
d="M600 1405h141l625 -1405h-205l-186 414h-594l-176 -414h-205zM893 592l-225 506l-209 -506h434zM972 1764q-24 -132 -99.5 -198t-191.5 -66q-110 0 -188 68.5t-101 195.5h137q16 -65 55 -96t102 -31q58 0 94.5 29.5t52.5 97.5h139z" />
    <glyph glyph-name="abreve" unicode="&#x103;" horiz-adv-x="874" 
d="M707 553v-391q0 -47 32 -47q33 0 103 49v-111q-62 -40 -99.5 -54.5t-78.5 -14.5q-117 0 -138 92q-116 -90 -247 -90q-96 0 -160 63.5t-64 159.5q0 87 62.5 155.5t177.5 108.5l233 80v49q0 166 -166 166q-149 0 -290 -154v199q106 125 305 125q149 0 239 -78
q30 -25 54 -66.5t30.5 -83t6.5 -157.5zM528 182v273l-122 -47q-93 -37 -131.5 -74.5t-38.5 -93.5q0 -57 36.5 -93t94.5 -36q87 0 161 71zM673 1397q-24 -132 -99.5 -198t-191.5 -66q-110 0 -188 68.5t-101 195.5h137q16 -65 55 -96t102 -31q58 0 94.5 29.5t52.5 97.5h139z
" />
    <glyph glyph-name="Aogonek" unicode="&#x104;" horiz-adv-x="1366" 
d="M1444 -197v-137q-74 -31 -150 -31q-90 0 -148.5 54.5t-58.5 138.5q0 88 74 172l-186 412h-594l-176 -412h-205l600 1405h141l625 -1405h-66q-57 -78 -57 -125q0 -39 31 -66.5t74 -27.5q16 0 96 22zM668 1098l-209 -506h434z" />
    <glyph glyph-name="aogonek" unicode="&#x105;" horiz-adv-x="874" 
d="M842 164v-111q-35 -24 -123 -65q-47 -54 -47 -113q0 -39 26.5 -66.5t71.5 -27.5q33 0 100 22v-137q-67 -31 -137 -31q-99 0 -159 55t-60 138q0 88 72 170q-45 25 -58 78q-122 -94 -247 -94q-95 0 -160.5 67t-65.5 160q0 78 43.5 134.5t116.5 91.5t313 118v51
q0 162 -163 162q-150 0 -291 -152v199q106 125 305 125q101 0 173.5 -34t114.5 -103.5t42 -247.5v-391q0 -47 32 -47q29 0 101 49zM528 184v271q-158 -61 -197.5 -82.5t-66 -56.5t-26.5 -76q0 -56 37.5 -92.5t93.5 -36.5q86 0 159 73z" />
    <glyph glyph-name="Cacute" unicode="&#x106;" horiz-adv-x="1450" 
d="M1358 324v-220q-220 -120 -508 -120q-234 0 -397 94t-258 259t-95 357q0 305 217.5 513t536.5 208q220 0 489 -115v-215q-245 140 -479 140q-240 0 -398.5 -151.5t-158.5 -379.5q0 -230 156 -378t399 -148q254 0 496 156zM1054 1800l-226 -300h-112l135 300h203z" />
    <glyph glyph-name="cacute" unicode="&#x107;" horiz-adv-x="897" 
d="M819 215v-180q-137 -51 -268 -51q-216 0 -344.5 128t-128.5 343q0 217 125 350t329 133q71 0 127.5 -13.5t139.5 -50.5v-194q-138 88 -256 88q-123 0 -202 -86.5t-79 -220.5q0 -141 85.5 -224t230.5 -83q105 0 241 61zM726 1419l-226 -300h-112l135 300h203z" />
    <glyph glyph-name="Ccaron" unicode="&#x10c;" horiz-adv-x="1450" 
d="M1358 324v-220q-220 -120 -508 -120q-234 0 -397 94t-258 259t-95 357q0 305 217.5 513t536.5 208q220 0 489 -115v-215q-245 140 -479 140q-240 0 -398.5 -151.5t-158.5 -379.5q0 -230 156 -378t399 -148q254 0 496 156zM1174 1809l-227 -309h-189l-224 309h114
l206 -173l206 173h114z" />
    <glyph glyph-name="ccaron" unicode="&#x10d;" horiz-adv-x="897" 
d="M819 215v-180q-137 -51 -268 -51q-216 0 -344.5 128t-128.5 343q0 217 125 350t329 133q71 0 127.5 -13.5t139.5 -50.5v-194q-138 88 -256 88q-123 0 -202 -86.5t-79 -220.5q0 -141 85.5 -224t230.5 -83q105 0 241 61zM839 1427l-227 -309h-189l-224 309h114l206 -173
l206 173h114z" />
    <glyph glyph-name="Dcaron" unicode="&#x10e;" horiz-adv-x="1536" 
d="M156 2v1395h471q285 0 451 -85.5t264 -251.5t98 -362q0 -140 -54 -268t-154 -225q-102 -100 -237 -151q-79 -31 -145 -41.5t-252 -10.5h-442zM606 1219h-250v-1039h256q150 0 233 20.5t138.5 52t101.5 77.5q148 150 148 379q0 225 -152 367q-56 53 -128.5 87t-137.5 45
t-209 11zM1012 1809l-227 -309h-189l-224 309h114l206 -173l206 173h114z" />
    <glyph glyph-name="dcaron" unicode="&#x10f;" horiz-adv-x="1216" 
d="M743 1397h183v-1397h-389q-204 0 -325.5 129t-121.5 346q0 203 127.5 334t325.5 131q92 0 200 -39v496zM743 156v583q-85 43 -172 43q-136 0 -216.5 -89t-80.5 -240q0 -142 70 -219q42 -46 89 -62t169 -16h141zM1046 902v38q84 75 85 206q-106 32 -106 131q0 53 36 93
t87 40q65 0 102 -57.5t37 -135.5q0 -102 -62 -191.5t-179 -123.5z" />
    <glyph glyph-name="Dslash" unicode="&#x110;" horiz-adv-x="1536" 
d="M155 633h-163v131h163v633h472q240 0 406.5 -64t286.5 -238t120 -396q0 -172 -75 -315t-200 -236.5t-254 -120.5t-314 -27h-442v633zM355 633v-452h258q243 0 364 66.5t188.5 191.5t67.5 269q0 132 -56.5 241t-154 174t-187 80.5t-229.5 15.5h-251v-455h396v-131h-396z
" />
    <glyph glyph-name="dmacron" unicode="&#x111;" horiz-adv-x="1045" 
d="M926 1208h159v-106h-159v-1102h-390q-217 0 -331.5 137t-114.5 336q0 210 131.5 337.5t320.5 127.5q97 0 199 -36v200h-220v106h220v189h185v-189zM741 740q-79 43 -171 43q-130 0 -213 -87.5t-83 -242.5q0 -114 44.5 -185t103.5 -92.5t180 -21.5h139v586z" />
    <glyph glyph-name="Eogonek" unicode="&#x118;" 
d="M965 -197v-137q-74 -31 -150 -31q-90 0 -148.5 54.5t-58.5 138.5q0 88 74 172h-528v1397h792v-180h-592v-422h572v-181h-572v-434h611v-180h-144q-57 -78 -57 -125q0 -39 30.5 -66.5t73.5 -27.5q15 0 97 22z" />
    <glyph glyph-name="eogonek" unicode="&#x119;" horiz-adv-x="981" 
d="M889 -197v-137q-68 -31 -137 -31q-99 0 -159.5 54.5t-60.5 138.5q0 76 60 156q-6 0 -27 -2h-28q-202 0 -328.5 136.5t-126.5 346.5q0 213 120 343t310 130q180 0 289.5 -128.5t109.5 -342.5v-23h-647q8 -128 90 -208t209 -80q182 0 332 112v-178q-37 -24 -135 -72
q-72 -86 -72 -143q0 -41 30 -67.5t68 -26.5q54 0 103 22zM268 553h463q-14 227 -221 227q-203 0 -242 -227z" />
    <glyph glyph-name="Ecaron" unicode="&#x11a;" 
d="M154 1397h792v-178h-592v-426h572v-179h-572v-434h611v-178h-811v1395zM880 1809l-227 -309h-189l-224 309h114l206 -173l206 173h114z" />
    <glyph glyph-name="ecaron" unicode="&#x11b;" horiz-adv-x="981" 
d="M913 444h-647q7 -132 88.5 -210t210.5 -78q180 0 332 112v-178q-84 -56 -166.5 -80t-193.5 -24q-152 0 -246 63t-150.5 169.5t-56.5 246.5q0 210 119 341.5t309 131.5q183 0 292 -128t109 -343v-23zM270 553h463q-7 109 -65 168t-156 59t-160.5 -59t-81.5 -168zM840 1427
l-227 -309h-189l-224 309h114l206 -173l206 173h114z" />
    <glyph glyph-name="Lacute" unicode="&#x139;" horiz-adv-x="1004" 
d="M154 1397h200v-1215h629v-182h-829v1397zM807 1800l-226 -300h-112l135 300h203z" />
    <glyph glyph-name="lacute" unicode="&#x13a;" horiz-adv-x="449" 
d="M133 1397h182v-1397h-182v1397zM449 1800l-226 -300h-112l135 300h203z" />
    <glyph glyph-name="Lcaron" unicode="&#x13d;" horiz-adv-x="1004" 
d="M154 1397h200v-1215h629v-182h-829v1397zM902 1809l-227 -309h-189l-224 309h114l206 -173l206 173h114z" />
    <glyph glyph-name="lcaron" unicode="&#x13e;" horiz-adv-x="597" 
d="M133 1397h182v-1397h-182v1397zM430 902v38q84 75 85 206q-106 32 -106 131q0 53 36 93t87 40q65 0 102 -57.5t37 -135.5q0 -102 -62 -191.5t-179 -123.5z" />
    <glyph glyph-name="Nacute" unicode="&#x143;" horiz-adv-x="1599" 
d="M1264 1397h190v-1397h-172l-934 1075v-1075h-188v1397h162l942 -1084v1084zM1047 1800l-226 -300h-112l135 300h203z" />
    <glyph glyph-name="nacute" unicode="&#x144;" 
d="M311 920v-117q122 135 277 135q86 0 160 -44.5t112.5 -122t38.5 -245.5v-526h-182v524q0 141 -43 201.5t-144 60.5q-129 0 -219 -129v-657h-186v920h186zM737 1419l-226 -300h-112l135 300h203z" />
    <glyph glyph-name="Ncaron" unicode="&#x147;" horiz-adv-x="1599" 
d="M1264 1397h190v-1397h-172l-934 1075v-1075h-188v1397h162l942 -1084v1084zM1126 1809l-227 -309h-189l-224 309h114l206 -173l206 173h114z" />
    <glyph glyph-name="ncaron" unicode="&#x148;" 
d="M311 920v-117q122 135 277 135q86 0 160 -44.5t112.5 -122t38.5 -245.5v-526h-182v524q0 141 -43 201.5t-144 60.5q-129 0 -219 -129v-657h-186v920h186zM832 1427l-227 -309h-189l-224 309h114l206 -173l206 173h114z" />
    <glyph glyph-name="Odblacute" unicode="&#x150;" horiz-adv-x="1686" 
d="M840 1417q324 0 539.5 -205t215.5 -514t-217.5 -511.5t-548.5 -202.5q-316 0 -526.5 202.5t-210.5 507.5q0 313 212 518t536 205zM848 1227q-240 0 -394.5 -150t-154.5 -383q0 -226 155 -376t388 -150q234 0 390.5 153t156.5 381q0 222 -156.5 373.5t-384.5 151.5z
M945 1800l-239 -300h-111l143 300h207zM1272 1800l-237 -300h-113l145 300h205z" />
    <glyph glyph-name="odblacute" unicode="&#x151;" horiz-adv-x="1130" 
d="M569 922q210 0 349 -135.5t139 -340.5q0 -199 -141 -330.5t-355 -131.5q-207 0 -346 133.5t-139 333.5q0 202 140.5 336.5t352.5 134.5zM559 758q-131 0 -215 -86t-84 -219q0 -132 86 -215.5t221 -83.5q134 0 219.5 84.5t85.5 216.5q0 131 -89 217t-224 86zM680 1422
l-239 -300h-111l143 300h207zM1007 1422l-237 -300h-113l145 300h205z" />
    <glyph glyph-name="Racute" unicode="&#x154;" horiz-adv-x="1237" 
d="M160 0v1397h350q212 0 336.5 -105t124.5 -284q0 -122 -61 -211t-175 -133q67 -44 131 -120t180 -265q73 -119 117 -179l74 -100h-238l-61 92q-3 5 -12 17l-39 55l-62 102l-67 109q-62 86 -113.5 137t-93 73.5t-139.5 22.5h-52v-608h-200zM420 1227h-60v-441h76
q152 0 208.5 26t88 78.5t31.5 119.5q0 66 -35 119.5t-98.5 75.5t-210.5 22zM752 1800l-226 -300h-112l135 300h203z" />
    <glyph glyph-name="racute" unicode="&#x155;" horiz-adv-x="811" 
d="M324 920v-211l10 16q132 213 264 213q103 0 215 -104l-96 -160q-95 90 -176 90q-88 0 -152.5 -84t-64.5 -199v-481h-183v920h183zM701 1419l-226 -300h-112l135 300h203z" />
    <glyph glyph-name="Rcaron" unicode="&#x158;" horiz-adv-x="1237" 
d="M160 0v1397h350q212 0 336.5 -105t124.5 -284q0 -122 -61 -211t-175 -133q67 -44 131 -120t180 -265q73 -119 117 -179l74 -100h-238l-61 92q-3 5 -12 17l-39 55l-62 102l-67 109q-62 86 -113.5 137t-93 73.5t-139.5 22.5h-52v-608h-200zM420 1227h-60v-441h76
q152 0 208.5 26t88 78.5t31.5 119.5q0 66 -35 119.5t-98.5 75.5t-210.5 22zM876 1809l-227 -309h-189l-224 309h114l206 -173l206 173h114z" />
    <glyph glyph-name="rcaron" unicode="&#x159;" horiz-adv-x="811" 
d="M324 920v-211l10 16q132 213 264 213q103 0 215 -104l-96 -160q-95 90 -176 90q-88 0 -152.5 -84t-64.5 -199v-481h-183v920h183zM797 1427l-227 -309h-189l-224 309h114l206 -173l206 173h114z" />
    <glyph glyph-name="Sacute" unicode="&#x15a;" horiz-adv-x="938" 
d="M500 586l-152 92q-143 87 -203.5 171.5t-60.5 194.5q0 165 114.5 268t297.5 103q175 0 321 -98v-227q-151 145 -325 145q-98 0 -161 -45.5t-63 -116.5q0 -63 46 -118t149 -115l153 -90q256 -152 256 -388q0 -168 -112.5 -273t-292.5 -105q-207 0 -377 127v254
q162 -205 375 -205q94 0 156.5 52.5t62.5 131.5q0 128 -184 242zM719 1800l-226 -300h-112l135 300h203z" />
    <glyph glyph-name="sacute" unicode="&#x15b;" horiz-adv-x="788" 
d="M84 66v196q77 -54 157.5 -87.5t135.5 -33.5q57 0 98 28t41 67q0 40 -26.5 66.5t-114.5 76.5q-176 98 -230.5 167.5t-54.5 151.5q0 106 82.5 173t212.5 67q135 0 277 -76v-180q-162 98 -265 98q-53 0 -85.5 -22.5t-32.5 -59.5q0 -32 29.5 -61t103.5 -70l65 -37
q230 -130 230 -288q0 -113 -88.5 -185.5t-227.5 -72.5q-82 0 -146 17.5t-161 64.5zM620 1419l-226 -300h-112l135 300h203z" />
    <glyph glyph-name="Tcedilla" unicode="&#x162;" horiz-adv-x="1237" 
d="M35 1399h1167v-178h-487v-1221h-201v1221h-479v178zM523 -578v38q84 75 85 206q-106 32 -106 131q0 53 36 93t87 40q65 0 102 -57.5t37 -135.5q0 -102 -62 -191.5t-179 -123.5z" />
    <glyph glyph-name="tcedilla" unicode="&#x163;" horiz-adv-x="682" 
d="M0 774l342 336v-190h291v-164h-291v-451q0 -158 131 -158q98 0 207 66v-170q-105 -59 -229 -59q-125 0 -208 73q-26 22 -43 49.5t-28.5 72t-11.5 169.5v408h-160v18zM328 -578v38q84 75 85 206q-106 32 -106 131q0 53 36 93t87 40q65 0 102 -57.5t37 -135.5
q0 -102 -62 -191.5t-179 -123.5z" />
    <glyph glyph-name="Tcaron" unicode="&#x164;" horiz-adv-x="1237" 
d="M35 1399h1167v-178h-487v-1221h-201v1221h-479v178zM939 1809l-227 -309h-189l-224 309h114l206 -173l206 173h114z" />
    <glyph glyph-name="tcaron" unicode="&#x165;" horiz-adv-x="896" 
d="M0 774l342 336v-190h291v-164h-291v-451q0 -158 131 -158q98 0 207 66v-170q-105 -59 -229 -59q-125 0 -208 73q-26 22 -43 49.5t-28.5 72t-11.5 169.5v408h-160v18zM722 902v38q84 75 85 206q-106 32 -106 131q0 53 36 93t87 40q65 0 102 -57.5t37 -135.5
q0 -102 -62 -191.5t-179 -123.5z" />
    <glyph glyph-name="Uring" unicode="&#x16e;" horiz-adv-x="1450" 
d="M1126 1397h201v-793q0 -161 -23.5 -243t-58 -136.5t-84.5 -97.5q-166 -143 -434 -143q-273 0 -438 142q-50 44 -84.5 98.5t-57 133.5t-22.5 248v791h201v-793q0 -197 45 -274t137 -123.5t217 -46.5q178 0 290 93q59 50 85 118t26 233v793zM727 1880q77 0 132.5 -55
t55.5 -134t-55.5 -135t-134.5 -56q-78 0 -133.5 55.5t-55.5 133.5q0 80 56.5 135.5t134.5 55.5zM722 1799q-51 0 -81.5 -30.5t-30.5 -79.5q0 -48 33.5 -81.5t81.5 -33.5t82 33t34 80t-34 79.5t-85 32.5z" />
    <glyph glyph-name="uring" unicode="&#x16f;" 
d="M715 0v117q-58 -63 -132.5 -98t-148.5 -35q-87 0 -160.5 43.5t-111 118t-37.5 247.5v527h182v-525q0 -145 41.5 -202.5t145.5 -57.5q130 0 221 127v658h182v-920h-182zM510 1497q77 0 132.5 -55t55.5 -134t-55.5 -135t-134.5 -56q-78 0 -133.5 55.5t-55.5 133.5
q0 80 56.5 135.5t134.5 55.5zM505 1416q-51 0 -81.5 -30.5t-30.5 -79.5q0 -48 33.5 -81.5t81.5 -33.5t82 33t34 80t-34 79.5t-85 32.5z" />
    <glyph glyph-name="Udblacute" unicode="&#x170;" horiz-adv-x="1450" 
d="M1126 1397h201v-793q0 -161 -23.5 -243t-58 -136.5t-84.5 -97.5q-166 -143 -434 -143q-273 0 -438 142q-50 44 -84.5 98.5t-57 133.5t-22.5 248v791h201v-793q0 -197 45 -274t137 -123.5t217 -46.5q178 0 290 93q59 50 85 118t26 233v793zM845 1800l-239 -300h-111
l143 300h207zM1172 1800l-237 -300h-113l145 300h205z" />
    <glyph glyph-name="udblacute" unicode="&#x171;" 
d="M715 0v117q-58 -63 -132.5 -98t-148.5 -35q-87 0 -160.5 43.5t-111 118t-37.5 247.5v527h182v-525q0 -145 41.5 -202.5t145.5 -57.5q130 0 221 127v658h182v-920h-182zM602 1422l-239 -300h-111l143 300h207zM929 1422l-237 -300h-113l145 300h205z" />
    <glyph glyph-name="Zacute" unicode="&#x179;" horiz-adv-x="1323" 
d="M82 1399h1204l-893 -1221h893v-178h-1261l895 1221h-838v178zM895 1800l-226 -300h-112l135 300h203z" />
    <glyph glyph-name="zacute" unicode="&#x17a;" horiz-adv-x="854" 
d="M43 920h786l-487 -750h487v-170h-806l483 750h-463v170zM651 1419l-226 -300h-112l135 300h203z" />
    <glyph glyph-name="Zdot" unicode="&#x17b;" horiz-adv-x="1323" 
d="M82 1399h1204l-893 -1221h893v-178h-1261l895 1221h-838v178zM654 1739q51 0 87 -35t36 -86q0 -50 -35.5 -84t-87.5 -34q-51 0 -86 34t-35 84q0 51 35 86t86 35z" />
    <glyph glyph-name="zdot" unicode="&#x17c;" horiz-adv-x="854" 
d="M43 920h786l-487 -750h487v-170h-806l483 750h-463v170zM450 1356q51 0 87 -35t36 -86q0 -50 -35.5 -84t-87.5 -34q-51 0 -86 34t-35 84q0 51 35 86t86 35z" />
    <glyph glyph-name="fraction1" unicode="&#x2044;" horiz-adv-x="405" 
d="M737 1416l-931 -1471h-138l931 1471h138z" />
    <glyph glyph-name="fi1" unicode="&#xf001;" 
d="M346 922h205v-156h-205v-766h-182v766h-137v156h137v30q0 223 101 343t288 120q153 0 242 -78t92 -215h-172q-27 73 -66 104t-102 31q-203 0 -203 -301q0 -16 2 -34zM715 922h172v-922h-172v922z" />
    <glyph glyph-name="fl1" unicode="&#xf002;" 
d="M338 922h209v-156h-209v-766h-178v766h-142v156h142v45q0 150 34 237t113 149t191 62q64 0 123 -18v-166q-52 14 -82 14q-110 0 -155.5 -63.5t-45.5 -218.5v-41zM713 1397h182v-1397h-182v1397z" />
    <glyph glyph-name="commaaccent" horiz-adv-x="683" 
d="M238 -578v38q84 75 85 206q-106 32 -106 131q0 53 36 93t87 40q65 0 102 -57.5t37 -135.5q0 -102 -62 -191.5t-179 -123.5z" />
    <glyph glyph-name="Scommaaccent" unicode="&#x15e;" horiz-adv-x="938" 
d="M500 586l-152 92q-143 87 -203.5 171.5t-60.5 194.5q0 165 114.5 268t297.5 103q175 0 321 -98v-227q-151 145 -325 145q-98 0 -161 -45.5t-63 -116.5q0 -63 46 -118t149 -115l153 -90q256 -152 256 -388q0 -168 -112.5 -273t-292.5 -105q-207 0 -377 127v254
q162 -205 375 -205q94 0 156.5 52.5t62.5 131.5q0 128 -184 242zM365 -578v38q84 75 85 206q-106 32 -106 131q0 53 36 93t87 40q65 0 102 -57.5t37 -135.5q0 -102 -62 -191.5t-179 -123.5z" />
    <glyph glyph-name="scommaaccent" unicode="&#x15f;" horiz-adv-x="788" 
d="M84 66v196q77 -54 157.5 -87.5t135.5 -33.5q57 0 98 28t41 67q0 40 -26.5 66.5t-114.5 76.5q-176 98 -230.5 167.5t-54.5 151.5q0 106 82.5 173t212.5 67q135 0 277 -76v-180q-162 98 -265 98q-53 0 -85.5 -22.5t-32.5 -59.5q0 -32 29.5 -61t103.5 -70l65 -37
q230 -130 230 -288q0 -113 -88.5 -185.5t-227.5 -72.5q-82 0 -146 17.5t-161 64.5zM289 -578v38q84 75 85 206q-106 32 -106 131q0 53 36 93t87 40q65 0 102 -57.5t37 -135.5q0 -102 -62 -191.5t-179 -123.5z" />
    <glyph glyph-name="currency" unicode="&#xa4;" horiz-adv-x="1130" 
d="M213 934l-139 136l115 119l139 -140q53 37 112.5 55t124.5 18q66 0 125.5 -18t111.5 -55l139 140l116 -119l-139 -136q71 -110 71 -235q0 -126 -71 -236l139 -136l-116 -119l-139 140q-52 -36 -111.5 -54.5t-125.5 -18.5q-65 0 -124.5 18.5t-112.5 54.5l-139 -140
l-115 119l139 136q-71 110 -71 236q0 125 71 235zM305 699q0 -108 76 -184t183 -76t183 76t76 184q0 107 -75.5 183t-183.5 76q-107 0 -183 -76t-76 -183z" />
    <hkern u1="&#x20;" u2="&#x2018;" k="205" />
    <hkern u1="&#x20;" u2="&#x201c;" k="205" />
    <hkern u1="&#x20;" u2="Y" k="307" />
    <hkern u1="&#x20;" u2="W" k="256" />
    <hkern u1="&#x20;" u2="V" k="307" />
    <hkern u1="&#x20;" u2="T" k="256" />
    <hkern u1="&#x20;" u2="A" k="205" />
    <hkern u1="&#x2c;" u2="&#x2019;" k="205" />
    <hkern u1="&#x2c;" u2="&#x201d;" k="205" />
    <hkern u1="&#x2c;" u2="&#x20;" k="205" />
    <hkern u1="&#x2e;" u2="&#x2019;" k="205" />
    <hkern u1="&#x2e;" u2="&#x201d;" k="205" />
    <hkern u1="&#x2e;" u2="&#x20;" k="205" />
    <hkern u1="&#x3a;" u2="&#x20;" k="205" />
    <hkern u1="&#x3b;" u2="&#x20;" k="205" />
    <hkern u1="A" u2="y" k="51" />
    <hkern u1="A" u2="w" k="51" />
    <hkern u1="A" u2="v" k="51" />
    <hkern u1="A" u2="Y" k="225" />
    <hkern u1="A" u2="W" k="164" />
    <hkern u1="A" u2="V" k="164" />
    <hkern u1="A" u2="U" k="41" />
    <hkern u1="A" u2="T" k="205" />
    <hkern u1="A" u2="Q" k="82" />
    <hkern u1="A" u2="O" k="82" />
    <hkern u1="A" u2="G" k="82" />
    <hkern u1="A" u2="C" k="82" />
    <hkern u1="B" u2="A" k="-41" />
    <hkern u1="C" u2="A" k="-51" />
    <hkern u1="C" u2="&#x2e;" k="-51" />
    <hkern u1="C" u2="&#x2c;" k="-51" />
    <hkern u1="D" u2="Y" k="205" />
    <hkern u1="D" u2="W" k="102" />
    <hkern u1="D" u2="V" k="102" />
    <hkern u1="D" u2="A" k="113" />
    <hkern u1="D" u2="&#x2e;" k="154" />
    <hkern u1="D" u2="&#x2c;" k="154" />
    <hkern u1="F" u2="o" k="31" />
    <hkern u1="F" u2="e" k="31" />
    <hkern u1="F" u2="A" k="102" />
    <hkern u1="F" u2="&#x2e;" k="287" />
    <hkern u1="F" u2="&#x2c;" k="287" />
    <hkern u1="J" u2="u" k="41" />
    <hkern u1="J" u2="o" k="41" />
    <hkern u1="J" u2="e" k="41" />
    <hkern u1="K" u2="y" k="154" />
    <hkern u1="K" u2="u" k="102" />
    <hkern u1="K" u2="o" k="123" />
    <hkern u1="K" u2="e" k="123" />
    <hkern u1="K" u2="O" k="246" />
    <hkern u1="L" u2="&#x2019;" k="164" />
    <hkern u1="L" u2="&#x201d;" k="164" />
    <hkern u1="L" u2="y" k="61" />
    <hkern u1="L" u2="Y" k="225" />
    <hkern u1="L" u2="W" k="205" />
    <hkern u1="L" u2="V" k="205" />
    <hkern u1="L" u2="T" k="205" />
    <hkern u1="O" u2="Y" k="164" />
    <hkern u1="O" u2="X" k="164" />
    <hkern u1="O" u2="W" k="82" />
    <hkern u1="O" u2="V" k="82" />
    <hkern u1="O" u2="T" k="133" />
    <hkern u1="O" u2="A" k="82" />
    <hkern u1="O" u2="&#x2e;" k="123" />
    <hkern u1="O" u2="&#x2c;" k="123" />
    <hkern u1="P" u2="o" k="51" />
    <hkern u1="P" u2="e" k="51" />
    <hkern u1="P" u2="A" k="164" />
    <hkern u1="P" u2="&#x2e;" k="307" />
    <hkern u1="P" u2="&#x2c;" k="307" />
    <hkern u1="R" u2="Y" k="205" />
    <hkern u1="R" u2="W" k="154" />
    <hkern u1="R" u2="V" k="164" />
    <hkern u1="R" u2="U" k="61" />
    <hkern u1="R" u2="T" k="184" />
    <hkern u1="R" u2="O" k="123" />
    <hkern u1="T" u2="y" k="256" />
    <hkern u1="T" u2="w" k="307" />
    <hkern u1="T" u2="u" k="287" />
    <hkern u1="T" u2="r" k="256" />
    <hkern u1="T" u2="o" k="307" />
    <hkern u1="T" u2="e" k="307" />
    <hkern u1="T" u2="a" k="256" />
    <hkern u1="T" u2="O" k="133" />
    <hkern u1="T" u2="A" k="205" />
    <hkern u1="T" u2="&#x3b;" k="61" />
    <hkern u1="T" u2="&#x3a;" k="61" />
    <hkern u1="T" u2="&#x2e;" k="256" />
    <hkern u1="T" u2="&#x2d;" k="348" />
    <hkern u1="T" u2="&#x2c;" k="256" />
    <hkern u1="U" u2="A" k="51" />
    <hkern u1="U" u2="&#x2e;" k="51" />
    <hkern u1="U" u2="&#x2c;" k="51" />
    <hkern u1="V" u2="u" k="154" />
    <hkern u1="V" u2="o" k="205" />
    <hkern u1="V" u2="e" k="205" />
    <hkern u1="V" u2="a" k="123" />
    <hkern u1="V" u2="O" k="82" />
    <hkern u1="V" u2="G" k="82" />
    <hkern u1="V" u2="A" k="164" />
    <hkern u1="V" u2="&#x2e;" k="266" />
    <hkern u1="V" u2="&#x2d;" k="205" />
    <hkern u1="V" u2="&#x2c;" k="266" />
    <hkern u1="W" u2="y" k="61" />
    <hkern u1="W" u2="u" k="154" />
    <hkern u1="W" u2="o" k="184" />
    <hkern u1="W" u2="e" k="184" />
    <hkern u1="W" u2="a" k="123" />
    <hkern u1="W" u2="O" k="82" />
    <hkern u1="W" u2="A" k="164" />
    <hkern u1="W" u2="&#x2e;" k="266" />
    <hkern u1="W" u2="&#x2d;" k="205" />
    <hkern u1="W" u2="&#x2c;" k="266" />
    <hkern u1="Y" u2="u" k="246" />
    <hkern u1="Y" u2="o" k="287" />
    <hkern u1="Y" u2="e" k="266" />
    <hkern u1="Y" u2="a" k="246" />
    <hkern u1="Y" u2="S" k="41" />
    <hkern u1="Y" u2="O" k="164" />
    <hkern u1="Y" u2="A" k="225" />
    <hkern u1="Y" u2="&#x3b;" k="61" />
    <hkern u1="Y" u2="&#x3a;" k="61" />
    <hkern u1="Y" u2="&#x2e;" k="266" />
    <hkern u1="Y" u2="&#x2d;" k="307" />
    <hkern u1="Y" u2="&#x2c;" k="266" />
    <hkern u1="a" u2="y" k="82" />
    <hkern u1="a" u2="w" k="72" />
    <hkern u1="a" u2="v" k="72" />
    <hkern u1="a" u2="p" k="20" />
    <hkern u1="b" u2="y" k="20" />
    <hkern u1="b" u2="&#x2e;" k="20" />
    <hkern u1="b" u2="&#x2c;" k="20" />
    <hkern u1="c" u2="&#x2e;" k="-41" />
    <hkern u1="c" u2="&#x2c;" k="-41" />
    <hkern u1="d" u2="d" k="20" />
    <hkern u1="e" u2="y" k="31" />
    <hkern u1="e" u2="w" k="31" />
    <hkern u1="e" u2="v" k="31" />
    <hkern u1="e" u2="&#x2e;" k="-41" />
    <hkern u1="e" u2="&#x2c;" k="-41" />
    <hkern u1="f" u2="&#x131;" k="20" />
    <hkern u1="f" u2="&#x2019;" k="-164" />
    <hkern u1="f" u2="&#x201d;" k="-164" />
    <hkern u1="f" u2="o" k="20" />
    <hkern u1="f" u2="e" k="20" />
    <hkern u1="g" u2="y" k="-41" />
    <hkern u1="g" u2="o" k="20" />
    <hkern u1="h" u2="y" k="72" />
    <hkern u1="k" u2="o" k="61" />
    <hkern u1="k" u2="e" k="61" />
    <hkern u1="l" u2="y" k="20" />
    <hkern u1="l" u2="w" k="20" />
    <hkern u1="m" u2="y" k="72" />
    <hkern u1="m" u2="u" k="20" />
    <hkern u1="n" u2="y" k="41" />
    <hkern u1="n" u2="v" k="31" />
    <hkern u1="n" u2="u" k="20" />
    <hkern u1="o" u2="y" k="41" />
    <hkern u1="o" u2="x" k="31" />
    <hkern u1="o" u2="w" k="20" />
    <hkern u1="o" u2="v" k="20" />
    <hkern u1="o" u2="&#x2e;" k="61" />
    <hkern u1="o" u2="&#x2c;" k="61" />
    <hkern u1="p" u2="y" k="72" />
    <hkern u1="p" u2="&#x2e;" k="61" />
    <hkern u1="p" u2="&#x2c;" k="61" />
    <hkern u1="r" u2="y" k="-61" />
    <hkern u1="r" u2="v" k="-61" />
    <hkern u1="r" u2="t" k="-41" />
    <hkern u1="r" u2="r" k="20" />
    <hkern u1="r" u2="q" k="51" />
    <hkern u1="r" u2="o" k="51" />
    <hkern u1="r" u2="e" k="41" />
    <hkern u1="r" u2="d" k="31" />
    <hkern u1="r" u2="c" k="51" />
    <hkern u1="r" u2="&#x3b;" k="-82" />
    <hkern u1="r" u2="&#x3a;" k="-82" />
    <hkern u1="r" u2="&#x2e;" k="205" />
    <hkern u1="r" u2="&#x2d;" k="164" />
    <hkern u1="r" u2="&#x2c;" k="205" />
    <hkern u1="s" u2="w" k="20" />
    <hkern u1="v" u2="o" k="41" />
    <hkern u1="v" u2="e" k="41" />
    <hkern u1="v" u2="&#x2e;" k="123" />
    <hkern u1="v" u2="&#x2c;" k="123" />
    <hkern u1="w" u2="o" k="41" />
    <hkern u1="w" u2="e" k="41" />
    <hkern u1="w" u2="&#x2e;" k="123" />
    <hkern u1="w" u2="&#x2c;" k="123" />
    <hkern u1="x" u2="e" k="61" />
    <hkern u1="y" u2="o" k="41" />
    <hkern u1="y" u2="e" k="41" />
    <hkern u1="y" u2="&#x2e;" k="164" />
    <hkern u1="y" u2="&#x2c;" k="164" />
    <hkern u1="&#x201c;" u2="&#x2018;" k="-123" />
    <hkern u1="&#x2019;" u2="&#x201d;" k="-123" />
    <hkern u1="&#x2019;" u2="v" k="51" />
    <hkern u1="&#x2019;" u2="t" k="82" />
    <hkern u1="&#x2019;" u2="s" k="164" />
    <hkern u1="&#x2019;" u2="r" k="164" />
    <hkern u1="&#x2019;" u2="d" k="164" />
  </font>
</defs></svg>
